<svg
    xmlns="http://www.w3.org/2000/svg"
    viewBox="0 0 128 128"
    id="vector">
    <path
        id="path"
        d="M 64 0 C 99.346 0 128 28.654 128 64 C 128 99.346 99.346 128 64 128 C 28.654 128 0 99.346 0 64 C 0 28.654 28.654 0 64 0 Z"
        fill="#e73458"/>
    <path
        id="path_1"
        d="M 73.668 51.881 C 72.987 51.881 72.579 52.426 72.579 52.97 C 72.579 53.651 73.124 54.06 73.668 54.06 C 74.349 54.06 74.758 53.515 74.758 52.97 C 74.894 52.426 74.349 51.881 73.668 51.881 Z"
        fill="#ffffff"/>
    <path
        id="path_2"
        d="M 52.834 72.715 C 52.153 72.715 51.745 73.26 51.745 73.804 C 51.745 74.485 52.289 74.894 52.834 74.894 C 53.515 74.894 53.923 74.349 53.923 73.804 C 54.06 73.123 53.515 72.715 52.834 72.715 Z"
        fill="#ffffff"/>
    <path
        id="path_3"
        d="M 91.234 41.123 C 90.826 40.987 90.417 41.123 90.145 41.396 L 85.379 46.162 L 83.064 46.162 L 80.613 43.574 L 80.613 41.26 L 85.243 36.494 C 85.515 36.221 85.651 35.813 85.515 35.404 C 85.379 34.996 85.106 34.723 84.834 34.587 C 83.609 34.179 82.383 34.043 81.157 34.043 C 77.481 34.043 74.077 35.813 71.898 38.809 C 69.855 41.668 69.174 45.072 70.128 48.477 L 61.685 56.919 L 47.66 42.894 L 47.66 40.17 C 47.66 39.762 47.387 39.353 47.115 39.217 L 39.081 34.315 C 38.672 34.043 37.991 34.179 37.719 34.451 L 34.451 37.719 C 34.043 38.128 34.043 38.672 34.315 39.081 L 39.217 47.115 C 39.489 47.523 39.762 47.66 40.17 47.66 L 42.894 47.66 L 56.919 61.685 L 48.477 70.128 C 45.209 69.174 41.668 69.855 38.809 71.898 C 35.813 74.077 34.043 77.481 34.043 81.157 C 34.043 82.383 34.179 83.609 34.587 84.834 C 34.723 85.243 34.996 85.515 35.404 85.651 C 35.813 85.787 36.221 85.651 36.494 85.379 L 41.26 80.613 L 43.574 80.613 L 46.162 83.2 L 46.162 85.515 L 41.396 90.281 C 41.123 90.553 40.987 90.962 41.123 91.37 C 41.26 91.779 41.532 92.051 41.94 92.187 C 43.166 92.596 44.391 92.732 45.617 92.732 C 49.294 92.732 52.698 90.962 54.877 87.966 C 56.919 85.106 57.6 81.702 56.647 78.298 L 63.455 71.489 L 64.953 73.123 L 64.272 73.804 C 63.864 74.213 63.864 75.03 64.272 75.438 C 64.681 75.847 65.498 75.847 65.906 75.438 L 66.587 74.757 L 81.157 90.553 C 83.881 93.277 88.238 93.277 90.826 90.553 C 93.549 87.83 93.549 83.472 90.826 80.885 L 75.03 66.451 L 75.711 65.77 C 76.119 65.362 76.119 64.545 75.711 64.136 C 75.302 63.728 74.485 63.728 74.077 64.136 L 73.396 64.817 L 71.762 63.319 L 78.57 56.511 C 79.523 56.783 80.477 56.919 81.566 56.919 C 87.83 56.919 93.004 51.745 93.004 45.481 C 93.004 44.255 92.868 43.03 92.46 41.804 C 91.915 41.532 91.506 41.26 91.234 41.123 Z M 43.983 45.753 C 43.711 45.481 43.438 45.481 43.166 45.481 L 40.579 45.481 L 36.494 38.672 L 38.4 36.766 L 45.209 40.851 L 45.209 43.438 C 45.209 43.711 45.345 43.983 45.481 44.255 L 59.915 58.689 L 58.281 60.323 L 43.983 45.753 Z M 73.123 68.085 L 88.919 82.655 C 90.689 84.426 90.689 87.285 88.919 89.055 C 87.149 90.826 84.289 90.826 82.519 89.055 L 67.949 73.26 L 73.123 68.085 Z M 71.489 66.587 L 66.451 71.626 L 64.953 69.991 L 69.855 65.089 L 71.489 66.587 Z M 81.157 54.74 C 80.204 54.74 79.115 54.604 78.298 54.196 C 77.889 54.06 77.481 54.196 77.072 54.468 C 71.353 60.187 58.962 72.579 54.468 77.072 C 54.196 77.345 54.06 77.889 54.196 78.298 C 55.149 81.157 54.74 84.153 52.97 86.604 C 51.2 89.055 48.477 90.417 45.481 90.417 C 45.209 90.417 44.8 90.417 44.528 90.417 L 48.204 86.74 C 48.477 86.468 48.477 86.196 48.477 85.923 L 48.477 82.655 C 48.477 82.383 48.34 82.111 48.204 81.838 L 44.936 78.57 C 44.664 78.298 44.391 78.298 44.119 78.298 L 40.851 78.298 C 40.579 78.298 40.306 78.434 40.034 78.57 L 36.494 82.247 C 36.494 81.974 36.494 81.566 36.494 81.294 C 36.494 78.298 37.855 75.574 40.306 73.804 C 42.757 72.034 45.753 71.626 48.613 72.579 C 49.021 72.715 49.43 72.579 49.838 72.306 L 72.443 49.702 C 72.715 49.43 72.851 48.885 72.715 48.477 C 71.762 45.617 72.17 42.621 73.94 40.17 C 75.711 37.719 78.434 36.357 81.43 36.357 C 81.838 36.357 82.111 36.357 82.519 36.357 L 78.979 40.034 C 78.706 40.306 78.706 40.579 78.706 40.851 L 78.706 44.119 C 78.706 44.391 78.843 44.664 78.979 44.936 L 82.111 48.204 C 82.383 48.477 82.655 48.613 82.928 48.613 L 86.196 48.613 C 86.468 48.613 86.74 48.477 87.013 48.34 L 90.689 44.664 C 90.689 44.936 90.689 45.345 90.689 45.617 C 90.281 50.655 86.196 54.74 81.157 54.74 Z"
        fill="#ffffff"/>
    <path
        id="path_4"
        d="M 69.583 55.421 L 55.285 69.719 C 54.877 70.128 54.877 70.945 55.285 71.353 C 55.694 71.762 56.511 71.762 56.919 71.353 L 71.217 57.055 C 71.626 56.647 71.626 55.83 71.217 55.421 C 70.809 55.013 70.128 55.013 69.583 55.421 Z"
        fill="#ffffff"/>
    <path
        id="path_5"
        d="M 84.153 85.787 C 84.562 86.196 85.379 86.196 85.787 85.787 C 86.196 85.379 86.196 84.562 85.787 84.153 L 75.438 73.804 C 75.03 73.396 74.213 73.396 73.804 73.804 C 73.396 74.213 73.396 75.03 73.804 75.438 L 84.153 85.787 Z"
        fill="#ffffff"/>
    <path
        id="path_6"
        d="M 64 0 C 47.032 0 30.742 6.747 18.746 18.746 C 6.747 30.742 0 47.032 0 64 C 0 80.968 6.747 97.258 18.746 109.254 C 30.742 121.253 47.032 128 64 128 C 80.968 128 97.258 121.253 109.254 109.254 C 121.253 97.258 128 80.968 128 64 C 128 47.032 121.253 30.742 109.254 18.746 C 97.258 6.747 80.968 0 64 0 Z"
        fill="#e5008c"
        stroke-width="1"/>
    <path
        id="path_1_1"
        d="M 55.04 68 C 53.28 69.76 50.56 69.76 48.8 68 C 48.16 67.36 47.2 67.36 46.56 68 C 45.92 68.64 45.92 69.6 46.56 70.24 C 48 71.68 50.08 72.48 52 72.48 C 53.92 72.48 55.84 71.68 57.44 70.24 C 58.08 69.6 58.08 68.64 57.44 68 C 56.64 67.36 55.68 67.36 55.04 68 Z M 79.84 68 C 78.08 69.76 75.36 69.76 73.6 68 C 72.96 67.36 72 67.36 71.36 68 C 70.72 68.64 70.72 69.6 71.36 70.24 C 72.8 71.68 74.88 72.48 76.8 72.48 C 78.72 72.48 80.64 71.68 82.24 70.24 C 82.88 69.6 82.88 68.64 82.24 68 C 81.6 67.36 80.48 67.36 79.84 68 Z"
        fill="#ffffff"
        stroke-width="1"/>
    <path
        id="path_2_1"
        d="M 72.64 94.72 C 70.4 96 68 96.8 65.44 97.6 C 51.2 93.92 41.28 81.12 41.28 66.24 L 41.28 64.16 L 41.92 64 C 50.88 61.92 59.52 58.4 67.2 53.28 C 72.48 60.16 80.64 64.32 89.44 64.32 L 89.6 64.32 L 89.6 66.24 C 89.6 71.52 88.32 76.8 85.76 81.6 C 85.28 82.4 85.6 83.36 86.4 83.68 C 86.56 83.84 86.88 83.84 87.2 83.84 C 87.68 83.84 88.32 83.52 88.64 83.04 C 89.76 80.8 90.72 78.56 91.36 76.16 L 92.16 76.16 C 93.92 76.16 95.68 75.52 96.96 74.24 C 98.24 72.96 98.88 71.2 98.88 69.44 L 98.88 65.44 C 98.88 61.92 96.16 59.04 92.8 58.72 L 92.8 56.32 C 92.8 47.2 88.32 39.04 81.28 34.08 C 80.16 26.4 73.44 20.48 65.44 20.48 C 57.44 20.48 50.88 26.24 49.6 34.08 C 42.72 39.04 38.08 47.2 38.08 56.32 L 38.08 58.72 C 34.72 59.04 32 61.92 32 65.44 L 32 69.44 C 32 71.2 32.64 72.96 33.92 74.24 C 35.2 75.52 36.96 76.16 38.72 76.16 L 39.52 76.16 C 43.04 88 52.48 97.6 64.96 100.64 L 65.6 100.64 C 68.48 100 71.2 98.88 73.76 97.44 C 74.56 96.96 74.88 96 74.4 95.36 C 74.4 94.56 73.44 94.4 72.64 94.72 Z M 95.68 65.44 L 95.68 69.44 C 95.68 70.4 95.36 71.36 94.56 72 C 93.92 72.64 92.96 73.12 92 73.12 C 92.48 70.88 92.64 68.64 92.64 66.4 L 92.64 61.92 C 94.4 62.24 95.68 63.68 95.68 65.44 Z M 65.44 23.52 C 70.88 23.52 75.52 26.88 77.44 31.68 C 73.76 29.92 69.76 28.96 65.44 28.96 C 61.12 28.96 57.12 29.92 53.44 31.68 C 55.36 26.88 60.16 23.52 65.44 23.52 Z M 65.44 32 C 78.72 32 89.6 42.88 89.6 56.16 L 89.6 61.12 L 89.44 61.12 C 81.76 61.12 74.56 57.6 69.76 51.52 C 70.88 50.72 71.84 49.92 72.96 49.12 C 73.6 48.64 73.76 47.52 73.28 46.88 C 72.8 46.24 71.68 46.08 71.04 46.56 C 62.4 53.44 52 58.4 41.28 60.8 L 41.28 56 C 41.28 42.88 52.16 32 65.44 32 Z M 38.88 73.12 C 37.92 73.12 36.96 72.8 36.32 72 C 35.68 71.36 35.2 70.4 35.2 69.44 L 35.2 65.44 C 35.2 63.68 36.48 62.24 38.24 61.92 L 38.24 66.4 C 38.24 68.64 38.4 70.88 38.88 73.12 Z"
        fill="#ffffff"
        stroke-width="1"/>
    <path
        id="path_3_1"
        d="M 75.52 46.4 C 75.84 46.4 76.32 46.24 76.64 45.92 C 77.28 45.28 77.44 44.32 76.8 43.68 C 76.16 43.04 75.2 42.88 74.56 43.52 C 73.92 44.16 73.76 45.12 74.4 45.76 C 74.72 46.24 75.2 46.4 75.52 46.4 Z M 84.64 87.36 L 81.12 78.24 C 80.64 76.8 79.2 76 77.6 76.32 C 71.52 77.44 66.56 82.4 65.44 88.48 C 65.12 89.92 65.92 91.36 67.36 91.84 L 76.32 95.52 L 83.52 102.72 C 83.84 103.04 84.32 103.2 84.64 103.2 C 84.96 103.2 85.44 103.04 85.76 102.72 C 86.4 102.08 86.4 101.12 85.76 100.48 L 79.52 94.24 L 83.2 90.56 L 91.36 98.72 C 92 99.36 92.96 99.36 93.6 98.72 C 94.24 98.08 94.24 97.12 93.6 96.48 L 84.64 87.36 Z M 78.08 79.52 L 81.28 87.84 L 76.8 92.32 L 68.8 88.96 C 69.6 84.16 73.44 80.48 78.08 79.52 Z M 96.64 100 C 96.16 100 95.84 100.16 95.52 100.48 C 95.2 100.8 95.04 101.28 95.04 101.6 C 95.04 102.08 95.2 102.4 95.52 102.72 C 95.84 103.04 96.32 103.2 96.64 103.2 C 97.12 103.2 97.44 103.04 97.76 102.72 C 98.08 102.4 98.24 101.92 98.24 101.6 C 98.24 101.12 98.08 100.8 97.76 100.48 C 97.6 100.16 97.12 100 96.64 100 Z"
        fill="#ffffff"
        stroke-width="1"/>
    <path
        id="path_4_1"
        d="M 64 0 C 47.032 0 30.742 6.747 18.746 18.746 C 6.747 30.742 0 47.032 0 64 C 0 80.968 6.747 97.258 18.746 109.254 C 30.742 121.253 47.032 128 64 128 C 80.968 128 97.258 121.253 109.254 109.254 C 121.253 97.258 128 80.968 128 64 C 128 47.032 121.253 30.742 109.254 18.746 C 97.258 6.747 80.968 0 64 0 Z"
        fill="#e5008c"
        stroke-width="1"/>
    <path
        id="path_5_1"
        d="M 87.04 90.56 L 87.04 56.32 L 88.16 56 C 89.92 55.36 90.72 53.6 90.24 51.84 C 89.76 50.56 88.48 49.6 87.2 49.6 L 87.2 30.56 C 87.2 29.6 86.4 28.96 85.6 28.96 C 84.64 28.96 84 29.76 84 30.56 L 84 50.56 L 76.48 53.12 C 75.84 51.36 75.04 49.28 74.72 48.16 C 73.44 44.64 71.68 42.56 69.12 41.76 C 67.68 45.76 67.2 47.2 66.24 49.76 C 67.2 57.6 66.56 53.12 69.6 70.72 C 69.76 71.68 68.96 72.64 68 72.64 L 55.2 72.64 C 54.24 72.64 53.44 71.68 53.6 70.72 C 56.64 53.12 56 57.6 56.8 49.92 C 54.72 43.84 54.88 44.48 53.92 41.76 C 51.52 42.4 49.6 44.64 48.48 48 C 46.08 54.72 40.8 69.28 40.8 69.44 C 40.32 70.88 40.96 72.64 42.24 73.28 L 42.24 77.76 C 39.04 77.76 37.12 80 37.12 82.56 L 37.12 88.8 C 37.12 89.44 37.6 90.08 38.4 90.08 L 49.28 90.08 C 49.92 90.08 50.56 89.6 50.56 88.8 L 50.56 82.56 C 50.56 80.16 48.8 77.76 45.44 77.76 L 45.44 73.28 C 46.08 72.96 46.56 72.32 46.88 71.52 C 46.88 71.36 50.72 60.96 53.28 53.6 C 53.12 55.04 48.96 76.16 48.96 76.16 C 50.56 76.96 51.68 78.24 52.32 79.84 L 52.96 79.84 L 52.96 103.36 C 52.96 105.44 54.72 107.2 56.8 107.2 C 58.88 107.2 60.64 105.44 60.64 103.36 L 60.64 79.84 L 62.24 79.84 L 62.24 103.36 C 62.24 105.44 64 107.2 66.08 107.2 C 68.16 107.2 69.92 105.44 69.92 103.36 L 69.92 79.84 L 72.32 79.84 C 73.44 79.84 74.24 78.88 74.08 77.76 C 73.76 76 69.6 55.04 69.44 53.6 C 70.24 55.68 71.04 57.92 71.04 58.08 C 71.68 59.68 73.44 60.64 75.2 60 L 83.68 57.12 L 83.68 90.24 C 80.96 90.88 79.04 93.44 79.04 96.32 L 79.04 96.8 L 91.68 96.8 L 91.68 96.32 C 91.68 93.76 89.76 91.2 87.04 90.56 Z M 87.04 90.56"
        fill="#ffffff"
        stroke-width="1"/>
    <path
        id="path_6_1"
        d="M 79.04 99.68 L 79.04 105.28 C 79.04 106.56 81.92 107.52 85.28 107.52 C 88.8 107.52 91.52 106.56 91.52 105.28 L 91.52 99.68 L 79.04 99.68 Z M 79.04 99.68 M 68.16 32.64 C 68.16 36.32 65.12 39.36 61.44 39.36 C 57.76 39.36 54.72 36.32 54.72 32.64 C 54.72 28.96 57.76 25.92 61.44 25.92 C 65.12 25.92 68.16 28.8 68.16 32.64 Z M 68.16 32.64 M 56.32 41.44 C 56.96 43.04 58.56 47.68 59.2 49.44 L 63.52 49.44 C 64.16 47.68 65.76 43.04 66.4 41.44 L 56.32 41.44 Z M 56.32 41.44"
        fill="#ffffff"
        stroke-width="1"/>
    <g
        id="group_2"
        transform="translate(-430.4 -153.60000000000002)">
        <g
            id="group_1"
            transform="translate(430.4 153.60000000000002)">
            <path
                id="path_7"
                d="M 128 64 C 128 80.967 121.253 97.257 109.255 109.255 C 97.257 121.253 80.967 128 64 128 C 47.033 128 30.743 121.253 18.745 109.255 C 6.747 97.257 0 80.967 0 64 C 0 47.033 6.747 30.743 18.745 18.745 C 30.743 6.747 47.033 0 64 0 C 80.967 0 97.257 6.747 109.255 18.745 C 121.253 30.743 128 47.033 128 64 Z"
                fill="#c6275f"/>
            <g
                id="group"
                transform="translate(38.400000000000006 38.400000000000006)">
                <path
                    id="path_8"
                    d="M 29.1 23.755 L 44.401 8.43"
                    fill="#0086af"/>
                <path
                    id="path_9"
                    d="M 29.1 23.755 L 44.401 8.43"
                    fill="none"
                    stroke="#ffffff"
                    stroke-width="2.2399999999999998"
                    stroke-linecap="round"
                    stroke-linejoin="round"/>
                <path
                    id="path_10"
                    d="M 19.311 33.559 L 23.421 29.443"
                    fill="#0086af"/>
                <path
                    id="path_11"
                    d="M 19.311 33.559 L 23.421 29.443"
                    fill="none"
                    stroke="#ffffff"
                    stroke-width="2.2399999999999998"
                    stroke-linecap="round"
                    stroke-linejoin="round"/>
                <path
                    id="path_12"
                    d="M 14.389 28.915 L 24.107 38.68"
                    fill="#0086af"/>
                <path
                    id="path_13"
                    d="M 14.389 28.915 L 24.107 38.68"
                    fill="none"
                    stroke="#ffffff"
                    stroke-width="2.2399999999999998"
                    stroke-linecap="round"
                    stroke-linejoin="round"/>
                <path
                    id="path_14"
                    d="M 22.258 36.901 L 7.546 51.614 C 5.964 53.195 3.401 53.195 1.819 51.614 L 1.819 51.614 C 0.238 50.033 0.238 47.469 1.819 45.888 L 16.532 31.175 L 22.258 36.901 L 22.258 36.901 Z"
                    fill="none"
                    stroke="#ffffff"
                    stroke-width="2.2399999999999998"
                    stroke-linecap="round"
                    stroke-linejoin="round"/>
                <path
                    id="path_15"
                    d="M 42.829 6.51 L 49.229 0.109 L 52.8 3.68 L 46.399 10.08 Z"
                    fill="none"
                    stroke="#ffffff"
                    stroke-width="2.2399999999999998"
                    stroke-linecap="round"
                    stroke-linejoin="round"/>
                <path
                    id="path_16"
                    d="M 38.76 34.264 L 17.919 13.422 C 18.407 12.293 18.68 11.028 18.68 9.661 C 18.68 4.521 14.48 0.388 9.34 0.388 C 8.11 0.388 6.918 0.644 5.843 1.077 L 9.993 4.368 L 9.311 9.725 L 3.855 10.531 L 0.649 6.307 C 0.231 7.366 0 8.521 0 9.729 C 0 14.869 4.167 19.036 9.307 19.036 C 10.638 19.036 11.9 18.752 13.044 18.249 L 33.933 39.137 C 33.43 40.281 33.146 41.545 33.146 42.875 C 33.146 48.015 37.312 52.183 42.452 52.183 C 43.682 52.183 44.857 51.944 45.933 51.509 L 41.774 48.228 L 42.452 42.875 L 47.906 42.071 L 51.11 46.297 C 51.53 45.238 51.76 44.083 51.76 42.875 C 51.76 37.735 47.66 33.501 42.52 33.501 C 41.155 33.501 39.889 33.775 38.76 34.264 L 38.76 34.264 Z"
                    fill="none"
                    stroke="#ffffff"
                    stroke-width="2.2399999999999998"
                    stroke-linecap="round"
                    stroke-linejoin="round"/>
            </g>
        </g>
    </g>
    <path
        id="path_17"
        d="M 64 0 C 47.033 0 30.743 6.747 18.745 18.745 C 6.747 30.743 0 47.033 0 64 C 0 80.967 6.747 97.257 18.745 109.255 C 30.743 121.253 47.033 128 64 128 C 80.967 128 97.257 121.253 109.255 109.255 C 121.253 97.257 128 80.967 128 64 C 128 47.033 121.253 30.743 109.255 18.745 C 97.257 6.747 80.967 0 64 0 Z"
        fill="#e73458"
        stroke-width="1"/>
    <g id="group_3">
        <path
            id="path_1_2"
            d="M 81.1 85.9 L 71.3 85.9 L 71.3 90.8 L 66.4 95.7 L 85.9 95.7 L 81.1 90.8 Z M 39.6 32.3 L 29.8 32.3 C 27.1 32.3 24.9 34.5 24.9 37.2 L 24.9 90.8 C 24.9 93.5 27.1 95.7 29.8 95.7 L 39.6 95.7 C 42.3 95.7 44.5 93.5 44.5 90.8 L 44.5 37.2 C 44.5 34.5 42.3 32.3 39.6 32.3 Z M 34.8 81.1 L 29.9 81.1 L 29.9 76.2 L 34.8 76.2 L 34.8 81.1 Z M 39.6 56.7 L 29.8 56.7 L 29.8 51.8 L 39.6 51.8 L 39.6 56.7 Z M 39.6 46.9 L 29.8 46.9 L 29.8 42 L 39.6 42 L 39.6 46.9 Z M 98.1 42.1 L 54.2 42.1 C 51.5 42.1 49.3 44.3 49.3 47 L 49.3 76.2 C 49.3 78.9 51.5 81.1 54.2 81.1 L 98.1 81.1 C 100.8 81.1 103 78.9 103 76.2 L 103 46.9 C 103 44.3 100.8 42.1 98.1 42.1 Z M 78.6 78.6 L 73.7 78.6 L 73.7 73.7 L 78.6 73.7 L 78.6 78.6 Z M 98.1 71.3 L 54.2 71.3 L 54.2 46.9 L 98.1 46.9 L 98.1 71.3 Z"
            fill="#ffffff"
            stroke-width="1"/>
    </g>
    <g
        id="group_6"
        transform="translate(-236.8 -561.6)">
        <g
            id="group_5"
            transform="translate(236.8 561.6)">
            <path
                id="path_18"
                d="M 128 64 C 128 80.967 121.253 97.257 109.255 109.255 C 97.257 121.253 80.967 128 64 128 C 47.033 128 30.743 121.253 18.745 109.255 C 6.747 97.257 0 80.967 0 64 C 0 47.033 6.747 30.743 18.745 18.745 C 30.743 6.747 47.033 0 64 0 C 80.967 0 97.257 6.747 109.255 18.745 C 121.253 30.743 128 47.033 128 64 Z"
                fill="#c6275f"/>
            <g
                id="group_4"
                transform="translate(35.2 41.6)">
                <path
                    id="path_19"
                    d="M 27.727 34.718 C 27.727 35.513 27.083 36.156 26.289 36.156 C 25.494 36.156 24.85 35.513 24.85 34.718 C 24.85 33.923 25.494 33.28 26.289 33.28 C 27.083 33.28 27.727 33.923 27.727 34.718"
                    fill="#ffffff"/>
                <path
                    id="path_20"
                    d="M 43.2 39.253 L 9.835 39.253 C 5.199 39.253 1.405 35.462 1.405 30.827 L 1.405 8.986 C 1.405 4.351 5.199 0.56 9.835 0.56 L 41.78 0.56 C 46.416 0.56 50.209 4.351 50.209 8.986 L 50.209 20.739"
                    fill="none"
                    stroke="#ffffff"
                    stroke-width="2.2399999999999998"/>
                <path
                    id="path_21"
                    d="M 51.768 41.113 C 51.768 41.908 51.123 42.552 50.329 42.552 C 49.534 42.552 48.891 41.908 48.891 41.113 C 48.891 40.319 49.534 39.675 50.329 39.675 C 51.123 39.675 51.768 40.319 51.768 41.113"
                    fill="#ffffff"/>
                <path
                    id="path_22"
                    d="M 0.398 29.738 L 43.949 29.738"
                    fill="none"
                    stroke="#ffffff"
                    stroke-width="2.2399999999999998"/>
                <path
                    id="path_23"
                    d="M 52.679 44.94 L 47.979 44.94 C 45.661 44.94 43.765 43.045 43.765 40.727 L 43.765 24.952 C 43.765 22.635 45.661 20.739 47.979 20.739 L 52.679 20.739 C 54.997 20.739 56.893 22.635 56.893 24.952 L 56.893 40.727 C 56.893 43.045 54.997 44.94 52.679 44.94 L 52.679 44.94 Z"
                    fill="none"
                    stroke="#ffffff"
                    stroke-width="2.2399999999999998"/>
                <path
                    id="path_24"
                    d="M 26.331 39.616 L 26.331 43.83"
                    fill="none"
                    stroke="#ffffff"
                    stroke-width="2.2399999999999998"/>
                <path
                    id="path_25"
                    d="M 11.637 44.69 L 41.139 44.69"
                    fill="none"
                    stroke="#ffffff"
                    stroke-width="2.2399999999999998"
                    stroke-linecap="round"
                    stroke-linejoin="round"/>
            </g>
        </g>
    </g>
    <path
        id="path_26"
        d="M 64 0 C 47.033 0 30.743 6.747 18.745 18.745 C 6.747 30.743 0 47.033 0 64 C 0 80.967 6.747 97.257 18.745 109.255 C 30.743 121.253 47.033 128 64 128 C 80.967 128 97.257 121.253 109.255 109.255 C 121.253 97.257 128 80.967 128 64 C 128 47.033 121.253 30.743 109.255 18.745 C 97.257 6.747 80.967 0 64 0 Z"
        fill="#e73458"
        stroke-width="1"/>
    <path
        id="path_1_3"
        d="M 69.5 37.7 C 68.8 36.1 66.8 35.3 65.2 36.1 L 60.9 38.1 C 61.8 38.6 62.4 39.5 62.5 40.5 C 62.6 41.2 63.2 41.7 63.9 41.7 C 64.6 41.7 65.1 41.2 65.3 40.7 C 65.9 38.8 67.8 37.7 69.8 38 C 69.6 37.9 69.6 37.8 69.5 37.7 Z M 92.9 58.9 L 76.5 58.9 L 76.5 67.5 C 76.5 67.9 76.5 68.2 76.4 68.6 L 95 68.6 L 95 61 C 95 59.9 94 58.9 92.9 58.9 Z M 84.2 64.8 C 83.3 64.8 82.6 64.1 82.6 63.2 C 82.6 62.3 83.3 61.6 84.2 61.6 C 85.1 61.6 85.8 62.3 85.8 63.2 C 85.7 64.1 85.1 64.8 84.2 64.8 Z M 90 65.1 C 89 65.1 88.1 64.2 88.1 63.2 C 88.1 62.2 89 61.3 90 61.3 C 91 61.3 91.9 62.2 91.9 63.2 C 92 64.3 91.2 65.1 90 65.1 Z M 74.4 71 C 73.8 71.4 73.2 71.5 72.4 71.5 L 56.9 71.6 L 56.9 98 C 56.9 99.1 57.9 100.1 59 100.1 L 92.9 100.1 C 94 100.1 95 99.1 95 98 L 95 71 L 74.4 71 Z M 82.4 91.9 C 78.9 95.4 73.2 95.4 69.6 91.9 C 66.1 88.4 66.1 82.7 69.6 79.1 C 73.1 75.6 78.8 75.6 82.4 79.1 C 85.8 82.7 85.8 88.4 82.4 91.9 Z"
        fill="#ffffff"
        stroke-width="1"/>
    <path
        id="path_2_2"
        d="M 71.4 81.3 C 69.2 83.7 69.3 87.4 71.6 89.7 C 74 92.1 77.7 92.1 80 89.9 L 71.4 81.3 Z M 79.5 47.9 L 73.3 42.2 L 69.2 41 C 68.7 40.9 68.1 41.1 68 41.6 C 67.4 43.3 65.8 44.6 63.8 44.6 C 63.2 44.6 62.6 44.5 61.9 44.2 C 61.9 45.9 61.2 47.8 59.7 49 L 54.2 53.3 L 54.4 67.4 C 54.4 68 54.9 68.5 55.5 68.5 L 72.5 68.4 C 73.1 68.4 73.6 67.9 73.6 67.3 L 73.5 50.9 L 75.5 52.9 C 76 53.4 76.7 53.3 77.1 52.8 L 79.7 49 C 80 48.7 80 48.2 79.5 47.9 Z"
        fill="#ffffff"
        stroke-width="1"/>
    <path
        id="path_3_2"
        d="M 58.7 42.4 C 57.6 40.9 55.5 40.7 54 41.8 L 46.3 48 L 40.2 42.9 L 45.3 45.3 C 46.9 43.9 45.8 44.8 51.1 40.7 L 44.5 38.6 C 43.9 38.4 43.3 38.4 42.6 38.2 C 41.5 38.1 38.9 38 33.2 37.6 C 30.5 37.4 28.1 39.5 28 42.2 L 26.4 67.2 L 26.3 96.2 C 26.3 98.4 28 100.2 30.3 100.2 C 32.5 100.2 34.3 98.5 34.3 96.2 C 34.4 65.4 34.4 67.4 34.3 67.1 L 36.5 67.1 L 41.3 79.9 L 39.9 96 C 39.8 98.2 41.4 100.1 43.5 100.2 C 45.7 100.3 47.6 98.7 47.7 96.6 L 49.2 79.6 C 49.2 79 49.2 78.5 49 77.9 L 44.9 67 L 45.5 58.8 C 44.3 58.7 43.1 58.1 42.4 56.9 L 36 48.1 L 44.2 54.9 C 45.4 55.9 47.2 55.9 48.4 54.9 L 58.2 47.1 C 59.4 45.9 59.7 43.9 58.7 42.4 Z M 39.6 20.8 C 38.059 20.8 36.556 21.288 35.309 22.194 C 34.062 23.1 33.134 24.378 32.657 25.844 C 32.181 27.31 32.181 28.89 32.657 30.356 C 33.134 31.822 34.062 33.1 35.309 34.006 C 36.556 34.912 38.059 35.4 39.6 35.4 C 41.535 35.4 43.393 34.63 44.762 33.262 C 46.13 31.893 46.9 30.035 46.9 28.1 C 46.9 26.165 46.13 24.307 44.762 22.938 C 43.393 21.57 41.535 20.8 39.6 20.8 Z M 77.5 35.1 L 76.1 34.7 C 75.9 34.6 75.6 34.3 75.5 34.1 L 75.1 32.7 C 75 32.5 74.7 32.5 74.6 32.7 L 74.2 34.1 C 74.1 34.3 73.8 34.6 73.6 34.7 L 72.2 35.1 C 72 35.2 72 35.5 72.2 35.6 L 73.6 36 C 73.8 36.1 74.1 36.4 74.2 36.6 L 74.6 38 C 74.7 38.2 75 38.2 75.1 38 L 75.5 36.6 C 75.6 36.4 75.9 36.1 76.1 36 L 77.5 35.6 C 77.8 35.4 77.8 35.2 77.5 35.1 Z M 71.1 29.4 L 69.8 29 C 69.6 28.9 69.3 28.8 69.3 28.5 L 69 27.3 C 69 27.1 68.6 27.1 68.6 27.3 L 68.2 28.5 C 68.1 28.7 68 29 67.6 29.1 L 66.4 29.5 C 66.2 29.5 66.2 29.9 66.4 29.9 L 67.6 30.3 C 67.8 30.3 68.1 30.4 68.2 30.8 L 68.6 32 C 68.6 32.2 69 32.2 69 32 L 69.4 30.8 C 69.5 30.6 69.6 30.3 70 30.2 L 71.2 29.8 C 71.3 29.7 71.3 29.4 71.1 29.4 Z M 75.3 24.5 L 74.4 24.3 C 74.2 24.3 74 24.1 74 23.9 L 73.8 23 C 73.8 22.9 73.6 22.9 73.6 23 L 73.4 23.9 C 73.4 24.1 73.2 24.3 73 24.3 L 71.9 24.5 C 71.8 24.5 71.8 24.7 71.9 24.7 L 72.8 24.9 C 73 24.9 73.2 25.1 73.2 25.3 L 73.4 26.2 C 73.4 26.3 73.6 26.3 73.6 26.2 L 73.8 25.3 C 73.8 25.1 74 24.9 74.2 24.9 L 75.1 24.7 C 75.5 24.8 75.5 24.7 75.3 24.5 Z"
        fill="#ffffff"
        stroke-width="1"/>
    <path
        id="path_27"
        d="M 64 0 C 99.346 0 128 28.654 128 64 C 128 99.346 99.346 128 64 128 C 28.654 128 0 99.346 0 64 C 0 28.654 28.654 0 64 0 Z"
        fill="#e73458"/>
    <path
        id="path_28"
        d="M 83.608 86.604 L 83.608 57.464 L 84.562 57.191 C 86.06 56.647 86.74 55.149 86.332 53.651 C 85.923 52.562 84.834 51.745 83.745 51.745 L 83.745 35.54 C 83.745 34.723 83.064 34.179 82.383 34.179 C 81.566 34.179 81.021 34.86 81.021 35.54 L 81.021 52.562 L 74.621 54.74 C 74.077 53.243 73.396 51.472 73.123 50.519 C 72.034 47.523 70.536 45.753 68.357 45.072 C 67.132 48.477 66.723 49.702 65.906 51.881 C 66.723 58.553 66.179 54.74 68.766 69.719 C 68.902 70.536 68.221 71.353 67.404 71.353 L 56.511 71.353 C 55.694 71.353 55.013 70.536 55.149 69.719 C 57.736 54.74 57.191 58.553 57.872 52.017 C 56.102 46.843 56.238 47.387 55.421 45.072 C 53.379 45.617 51.745 47.523 50.791 50.383 C 48.749 56.102 44.255 68.494 44.255 68.63 C 43.847 69.855 44.391 71.353 45.481 71.898 L 45.481 75.711 C 42.757 75.711 41.123 77.617 41.123 79.796 L 41.123 85.106 C 41.123 85.651 41.532 86.196 42.213 86.196 L 51.472 86.196 C 52.017 86.196 52.562 85.787 52.562 85.106 L 52.562 79.796 C 52.562 77.753 51.064 75.711 48.204 75.711 L 48.204 71.898 C 48.749 71.626 49.157 71.081 49.43 70.4 C 49.43 70.264 52.698 61.413 54.877 55.149 C 54.74 56.374 51.2 74.349 51.2 74.349 C 52.562 75.03 53.515 76.119 54.06 77.481 L 54.604 77.481 L 54.604 97.498 C 54.604 99.268 56.102 100.766 57.872 100.766 C 59.643 100.766 61.14 99.268 61.14 97.498 L 61.14 77.481 L 62.502 77.481 L 62.502 97.498 C 62.502 99.268 64 100.766 65.77 100.766 C 67.54 100.766 69.038 99.268 69.038 97.498 L 69.038 77.481 L 71.081 77.481 C 72.034 77.481 72.715 76.664 72.579 75.711 C 72.306 74.213 68.766 56.374 68.63 55.149 C 69.311 56.919 69.991 58.826 69.991 58.962 C 70.536 60.323 72.034 61.14 73.532 60.596 L 80.749 58.145 L 80.749 86.332 C 78.434 86.877 76.8 89.055 76.8 91.506 L 76.8 91.915 L 87.557 91.915 L 87.557 91.506 C 87.557 89.328 85.923 87.149 83.608 86.604 Z"
        fill="#ffffff"/>
    <path
        id="path_29"
        d="M 76.8 94.366 L 76.8 99.132 C 76.8 100.221 79.251 101.038 82.111 101.038 C 85.106 101.038 87.421 100.221 87.421 99.132 L 87.421 94.366 L 76.8 94.366 Z"
        fill="#ffffff"/>
    <path
        id="path_30"
        d="M 67.54 37.311 C 67.54 40.442 64.953 43.03 61.821 43.03 C 58.689 43.03 56.102 40.442 56.102 37.311 C 56.102 34.179 58.689 31.591 61.821 31.591 C 64.953 31.591 67.54 34.042 67.54 37.311 Z"
        fill="#ffffff"/>
    <path
        id="path_31"
        d="M 57.464 44.8 C 58.009 46.162 59.37 50.111 59.915 51.608 L 63.591 51.608 C 64.136 50.111 65.498 46.162 66.043 44.8 L 57.464 44.8 Z"
        fill="#ffffff"/>
    <path
        id="path_32"
        d="M 64 0 C 47.033 0 30.743 6.747 18.745 18.745 C 6.747 30.743 0 47.033 0 64 C 0 80.967 6.747 97.257 18.745 109.255 C 30.743 121.253 47.033 128 64 128 C 80.967 128 97.257 121.253 109.255 109.255 C 121.253 97.257 128 80.967 128 64 C 128 47.033 121.253 30.743 109.255 18.745 C 97.257 6.747 80.967 0 64 0 Z"
        fill="#e5008c"
        stroke-width="1"/>
    <path
        id="path_1_4"
        d="M 79.2 44.1 C 78 44.5 77 45.2 76.1 46.5 C 77.2 49.6 79.3 55.7 80.5 58.9 C 81.1 55 81.6 50.8 81.6 50.8 C 81.6 50.8 80.2 46.8 79.2 44.1 Z M 85.5 31.1 C 84.042 31.1 82.642 31.68 81.611 32.711 C 80.58 33.742 80 35.142 80 36.6 C 80 38.058 80.58 39.458 81.611 40.489 C 82.642 41.52 84.042 42.1 85.5 42.1 C 86.958 42.1 88.358 41.52 89.389 40.489 C 90.42 39.458 91 38.058 91 36.6 C 91 35.142 90.42 33.742 89.389 32.711 C 88.358 31.68 86.958 31.1 85.5 31.1 Z M 101.8 65.4 C 101.8 65.3 96.9 51.4 96.2 49.3 C 95.2 46.4 93.7 44.7 91.7 44.2 C 90.6 47.3 89.5 50.7 89.5 50.7 C 89.5 50.7 90.9 59.7 92.1 67.8 C 92.2 68.5 91.6 69.3 90.9 69.3 L 80.4 69.3 C 80 69.3 79.5 69.1 79.3 68.7 C 78.3 69.2 77.2 69.3 76.1 69.1 L 75.6 71.5 C 75.8 72.5 75.7 73.5 75.1 74.4 C 75.2 75.1 75.8 75.5 76.5 75.5 L 78.5 75.5 L 78.5 94.6 C 78.5 96.3 79.9 97.7 81.6 97.7 C 83.3 97.7 84.7 96.3 84.7 94.6 L 84.7 75.4 L 86.1 75.4 L 86.1 94.5 C 86.1 96.2 87.5 97.6 89.2 97.6 C 90.9 97.6 92.3 96.2 92.3 94.5 L 92.3 75.4 L 94.3 75.4 C 95.2 75.4 95.9 74.5 95.8 73.7 C 91.8 52.8 92.2 55.2 92.1 54.1 C 93.7 58.8 96.6 66.8 96.7 67.3 C 97.2 68.7 98.7 69.4 100.1 68.9 C 101.6 68.2 102.3 66.7 101.8 65.4 Z M 81.4 43.9 C 82.5 47.1 81.9 45.5 83.6 50.4 L 87.1 50.4 C 87.8 48.2 88.6 46.2 89.3 43.9 L 81.4 43.9 Z M 38.5 31.1 C 37.042 31.1 35.642 31.68 34.611 32.711 C 33.58 33.742 33 35.142 33 36.6 C 33 38.058 33.58 39.458 34.611 40.489 C 35.642 41.52 37.042 42.1 38.5 42.1 C 39.958 42.1 41.358 41.52 42.389 40.489 C 43.42 39.458 44 38.058 44 36.6 C 44 35.142 43.42 33.742 42.389 32.711 C 41.358 31.68 39.958 31.1 38.5 31.1 Z M 48.6 71.2 L 48.1 68.8 C 47.7 69 47.4 69 47 69 C 46.3 69 45.5 68.9 44.9 68.5 C 44.7 68.9 44.3 69.1 43.8 69.1 L 33.3 69.1 C 32.6 69.1 31.9 68.4 32.1 67.6 C 34.6 53.4 34 57 34.7 50.7 C 33.2 46.6 33.2 46.3 32.3 44.1 C 30.3 44.7 28.8 46.3 27.8 49.2 C 27.1 51.4 22.3 65.2 22.2 65.3 C 21.7 66.7 22.4 68.2 23.8 68.7 C 25.2 69.2 26.7 68.5 27.2 67.1 C 27.3 66.6 30.3 58.4 31.9 53.7 C 31.8 55.1 32.3 52.5 28.2 73.6 C 28 74.5 28.7 75.3 29.6 75.3 L 31.6 75.3 L 31.6 94.4 C 31.6 96.1 33 97.5 34.7 97.5 C 36.4 97.5 37.8 96.1 37.8 94.4 L 37.8 75.4 L 39.2 75.4 L 39.2 94.5 C 39.2 96.2 40.6 97.6 42.3 97.6 C 44 97.6 45.4 96.2 45.4 94.5 L 45.4 75.4 L 47.4 75.4 C 48 75.4 48.6 74.9 48.8 74.3 C 48.4 73.2 48.4 72.2 48.6 71.2 Z M 44.6 44 C 42.7 49.5 43 48.6 42.4 50.5 C 43.1 56.6 42.9 54.9 43.5 58.6 C 44.6 55.6 46.7 49.4 47.7 46.2 C 47 45.1 45.9 44.4 44.6 44 Z M 34.4 43.9 C 35.5 47.1 34.9 45.5 36.6 50.4 L 40.1 50.4 C 40.8 48.2 41.6 46.2 42.3 43.9 L 34.4 43.9 Z"
        fill="#ffffff"
        stroke-width="1"/>
    <path
        id="path_2_3"
        d="M 79.6 63 C 78.7 60.4 74.5 48.3 73.6 45.6 L 73.6 45.5 C 72.7 43 71.2 40.6 68.7 39.9 C 67.6 43 66.2 46.9 66.2 46.9 C 66.2 46.9 66.4 49.9 69.1 65.3 C 69.2 66.2 68.6 66.9 67.7 66.9 L 56.5 66.9 C 55.6 66.9 55 66.2 55.1 65.3 C 57.7 49.8 58 47 58 47 C 58 47 56.6 43.3 55.5 39.8 C 53.4 40.4 51.6 42.3 50.6 45.4 C 49.9 47.6 45.4 60.4 44.6 62.5 C 43.9 64.5 44.8 65.9 46.2 66.4 C 47.7 66.9 49.3 66.2 49.8 64.7 C 49.9 64.2 53 55.2 54.9 50.2 L 50.7 71.9 C 50.5 72.9 51.3 73.8 52.2 73.8 L 54.3 73.8 L 54.3 94.5 C 54.3 96.4 55.8 97.9 57.7 97.9 C 59.6 97.9 61.1 96.4 61.1 94.5 L 61.1 73.7 L 62.6 73.7 L 62.6 94.4 C 62.6 96.3 64.1 97.8 66 97.8 C 67.9 97.8 69.4 96.3 69.4 94.4 L 69.4 73.7 L 71.5 73.7 C 72.5 73.7 73.2 72.8 73 71.8 C 68.6 49.3 69.1 51.8 69 50.6 C 70.7 55.6 73.9 64.3 74 64.8 C 74.6 66.5 76.6 67.2 78.1 66.3 C 79.5 65.7 80.1 64.4 79.6 63 Z"
        fill="#ffffff"
        stroke-width="1"/>
    <path
        id="path_3_3"
        d="M 57.6 39.8 C 58 40.7 59.7 45.8 60.1 46.8 L 64 46.8 C 64.9 44.4 65.6 42.3 66.5 39.8 L 57.6 39.8 Z M 62 26.1 C 58.8 26.1 56.1 28.7 56.1 32 C 56.1 35.3 58.7 37.9 62 37.9 C 65.3 37.9 67.9 35.3 67.9 32 C 67.9 28.7 65.2 26.1 62 26.1 Z"
        fill="#ffffff"
        stroke-width="1"/>
    <path
        id="path_33"
        d="M 64 0 C 47.033 0 30.743 6.747 18.745 18.745 C 6.747 30.743 0 47.033 0 64 C 0 80.967 6.747 97.257 18.745 109.255 C 30.743 121.253 47.033 128 64 128 C 80.967 128 97.257 121.253 109.255 109.255 C 121.253 97.257 128 80.967 128 64 C 128 47.033 121.253 30.743 109.255 18.745 C 97.257 6.747 80.967 0 64 0 Z"
        fill="#e73458"
        stroke-width="1"/>
    <g id="group_7">
        <path
            id="path_1_5"
            d="M 45.4 19.2 C 43.542 19.2 41.731 19.788 40.227 20.881 C 38.724 21.973 37.605 23.514 37.031 25.281 C 36.457 27.048 36.457 28.952 37.031 30.719 C 37.605 32.486 38.724 34.027 40.227 35.119 C 41.731 36.212 43.542 36.8 45.4 36.8 C 47.258 36.8 49.069 36.212 50.573 35.119 C 52.076 34.027 53.195 32.486 53.769 30.719 C 54.343 28.952 54.343 27.048 53.769 25.281 C 53.195 23.514 52.076 21.973 50.573 20.881 C 49.069 19.788 47.258 19.2 45.4 19.2 Z M 74.2 19.2 C 72.342 19.2 70.531 19.788 69.027 20.881 C 67.524 21.973 66.405 23.514 65.831 25.281 C 65.257 27.048 65.257 28.952 65.831 30.719 C 66.405 32.486 67.524 34.027 69.027 35.119 C 70.531 36.212 72.342 36.8 74.2 36.8 C 76.058 36.8 77.869 36.212 79.373 35.119 C 80.876 34.027 81.995 32.486 82.569 30.719 C 83.143 28.952 83.143 27.048 82.569 25.281 C 81.995 23.514 80.876 21.973 79.373 20.881 C 77.869 19.788 76.058 19.2 74.2 19.2 Z M 38.3 69.3 L 32.1 68.3 C 29.3 67.8 27.5 65.2 27.9 62.4 L 31.6 40.1 C 32.1 37.3 34.7 35.5 37.5 35.9 L 43.7 36.9 C 46.5 37.4 48.3 40 47.9 42.8 L 44.2 65.1 C 43.6 67.9 40.9 69.8 38.3 69.3 Z"
            fill="#ffffff"
            stroke-width="1"/>
        <path
            id="path_2_4"
            d="M 88.4 48.8 C 89 50.8 92.4 65.5 92.4 65.5 C 95.5 66.6 95.3 68.8 95.3 68.8 L 102.1 68.8 L 102.1 88.8 L 75.6 88.8 L 75.6 69.4 L 81.8 69.4 C 82.3 66.7 85 65.7 85 65.7 C 83.3 55.1 80.3 49.8 80.3 49.8 L 79.5 49.5 C 84.2 63.9 83.5 65.3 83.5 65.3 L 81.2 68.1 L 78.1 68.1 C 74.5 66.4 73.8 55.9 73.8 55.9 C 73.8 55.9 74.1 59.2 64.5 60 C 54.9 60.8 56.6 54.8 56.6 54.8 C 56.5 53.5 58 52.9 58 52.9 L 65.1 52.9 C 71.3 52 70.8 45.6 70.8 45.6 C 71.1 39.2 75.3 35.9 80.6 36 C 86 36.1 87.2 44.8 87.2 44.8 C 87.3 46 88.4 48.8 88.4 48.8 Z M 84.8 69.3 L 87.7 69.3 C 87.7 69.3 85.8 66.1 84.8 69.3 Z M 89.8 69.3 L 92.6 69.3 C 92.6 69.3 91.8 66.1 89.8 69.3 Z M 79.7 89.6 L 79.7 97.5 C 79.7 97.5 80 100.8 84.7 100.8 C 89.4 100.8 89.3 96.8 89.3 96.8 L 89.3 89.5 L 79.7 89.5 Z M 37 100.8 L 33.4 100.8 C 31.9 100.8 30.6 99.5 30.6 98 L 30.6 66.8 C 30.6 65.3 31.9 64 33.4 64 L 37 64 C 38.5 64 39.8 65.3 39.8 66.8 L 39.8 98 C 39.8 99.5 38.5 100.8 37 100.8 Z"
            fill="#ffffff"
            stroke-width="1"/>
        <path
            id="path_3_4"
            d="M 46.9 40.1 C 46.9 40.1 48.9 42.1 48.8 47.1 C 48.8 47.1 48.8 54.4 56.7 54.9 C 56.7 54.9 66.9 58.5 61 62.5 C 61 62.5 47.9 62.6 45.3 56.4 L 46.9 40.1 Z"
            fill="#ffffff"
            stroke-width="1"/>
    </g>
</svg>
