<svg
    xmlns="http://www.w3.org/2000/svg"
    viewBox="0 0 128 128"
    id="vector">
    <path
        id="path"
        d="M 64 0 C 99.346 0 128 28.654 128 64 C 128 99.346 99.346 128 64 128 C 28.654 128 0 99.346 0 64 C 0 28.654 28.654 0 64 0 Z"
        fill="#e73458"/>
    <path
        id="path_1"
        d="M 56.374 67.404 C 54.877 68.902 52.562 68.902 51.064 67.404 C 50.519 66.86 49.702 66.86 49.157 67.404 C 48.613 67.949 48.613 68.766 49.157 69.311 C 50.383 70.536 52.153 71.217 53.787 71.217 C 55.421 71.217 57.055 70.536 58.417 69.311 C 58.962 68.766 58.962 67.949 58.417 67.404 C 57.736 66.86 56.919 66.86 56.374 67.404 Z"
        fill="#ffffff"/>
    <path
        id="path_2"
        d="M 77.481 67.404 C 75.983 68.902 73.668 68.902 72.17 67.404 C 71.626 66.86 70.809 66.86 70.264 67.404 C 69.719 67.949 69.719 68.766 70.264 69.311 C 71.489 70.536 73.26 71.217 74.894 71.217 C 76.528 71.217 78.162 70.536 79.523 69.311 C 80.068 68.766 80.068 67.949 79.523 67.404 C 78.979 66.86 78.026 66.86 77.481 67.404 Z"
        fill="#ffffff"/>
    <path
        id="path_3"
        d="M 71.353 90.145 C 69.447 91.234 67.404 91.915 65.226 92.596 C 53.106 89.464 44.664 78.57 44.664 65.907 L 44.664 64.136 L 45.209 64 C 52.834 62.23 60.187 59.234 66.723 54.877 C 71.217 60.732 78.162 64.272 85.651 64.272 L 85.787 64.272 L 85.787 65.907 C 85.787 70.4 84.698 74.894 82.519 78.979 C 82.111 79.66 82.383 80.477 83.064 80.749 C 83.2 80.885 83.472 80.885 83.745 80.885 C 84.153 80.885 84.698 80.613 84.97 80.204 C 85.923 78.298 86.74 76.392 87.285 74.349 L 87.966 74.349 C 89.464 74.349 90.962 73.804 92.051 72.715 C 93.14 71.626 93.685 70.128 93.685 68.63 L 93.685 65.226 C 93.685 62.23 91.37 59.779 88.511 59.507 L 88.511 57.464 C 88.511 49.702 84.698 42.757 78.706 38.536 C 77.753 32 72.034 26.962 65.226 26.962 C 58.417 26.962 52.834 31.864 51.745 38.536 C 45.889 42.757 41.94 49.702 41.94 57.464 L 41.94 59.507 C 39.081 59.779 36.766 62.23 36.766 65.226 L 36.766 68.63 C 36.766 70.128 37.311 71.626 38.4 72.715 C 39.489 73.804 40.987 74.349 42.485 74.349 L 43.166 74.349 C 46.162 84.426 54.196 92.596 64.817 95.183 C 64.953 95.183 65.089 95.183 65.089 95.183 C 65.226 95.183 65.362 95.183 65.362 95.183 C 67.813 94.638 70.128 93.685 72.306 92.46 C 72.987 92.051 73.26 91.234 72.851 90.689 C 72.851 90.009 72.034 89.872 71.353 90.145 Z M 90.962 65.226 L 90.962 68.63 C 90.962 69.447 90.689 70.264 90.009 70.809 C 89.464 71.353 88.647 71.762 87.83 71.762 C 88.238 69.855 88.374 67.949 88.374 66.043 L 88.374 62.23 C 89.872 62.502 90.962 63.728 90.962 65.226 Z M 65.226 29.549 C 69.855 29.549 73.804 32.409 75.438 36.494 C 72.306 34.996 68.902 34.179 65.226 34.179 C 61.549 34.179 58.145 34.996 55.013 36.494 C 56.647 32.409 60.732 29.549 65.226 29.549 Z M 65.226 36.766 C 76.528 36.766 85.787 46.026 85.787 57.328 L 85.787 61.004 L 85.787 61.549 L 85.651 61.549 C 79.115 61.549 72.987 58.553 68.902 53.379 C 69.855 52.698 70.672 52.017 71.626 51.336 C 72.17 50.928 72.306 49.974 71.898 49.43 C 71.489 48.885 70.536 48.749 69.991 49.158 C 62.638 55.013 53.787 59.234 44.664 61.277 L 44.664 60.868 L 44.664 57.192 C 44.664 46.026 53.923 36.766 65.226 36.766 Z M 42.621 71.762 C 41.804 71.762 40.987 71.489 40.443 70.809 C 39.898 70.264 39.489 69.447 39.489 68.63 L 39.489 65.226 C 39.489 63.728 40.579 62.502 42.077 62.23 L 42.077 66.043 C 42.077 67.949 42.213 69.855 42.621 71.762 Z"
        fill="#ffffff"/>
    <path
        id="path_4"
        d="M 73.804 49.021 C 74.077 49.021 74.485 48.885 74.757 48.613 C 75.302 48.068 75.438 47.251 74.894 46.706 C 74.349 46.162 73.532 46.026 72.987 46.57 C 72.443 47.115 72.306 47.932 72.851 48.477 C 73.123 48.885 73.532 49.021 73.804 49.021 Z"
        fill="#ffffff"/>
    <path
        id="path_5"
        d="M 81.566 83.881 L 78.57 76.119 C 78.162 74.894 76.936 74.213 75.574 74.485 C 70.4 75.438 66.179 79.66 65.226 84.834 C 64.953 86.06 65.634 87.285 66.86 87.694 L 74.485 90.826 L 80.613 96.953 C 80.885 97.226 81.294 97.362 81.566 97.362 C 81.838 97.362 82.247 97.226 82.519 96.953 C 83.064 96.409 83.064 95.591 82.519 95.047 L 77.209 89.736 L 80.34 86.604 L 87.285 93.549 C 87.83 94.094 88.647 94.094 89.191 93.549 C 89.736 93.004 89.736 92.187 89.191 91.643 L 81.566 83.881 Z M 75.983 77.209 L 78.706 84.289 L 74.894 88.102 L 68.085 85.243 C 68.766 81.157 72.034 78.026 75.983 77.209 Z"
        fill="#ffffff"/>
    <path
        id="path_6"
        d="M 91.779 94.638 C 91.37 94.638 91.098 94.774 90.825 95.047 C 90.553 95.319 90.417 95.728 90.417 96 C 90.417 96.409 90.553 96.681 90.825 96.953 C 91.098 97.226 91.506 97.362 91.779 97.362 C 92.187 97.362 92.459 97.226 92.732 96.953 C 93.004 96.681 93.14 96.272 93.14 96 C 93.14 95.591 93.004 95.319 92.732 95.047 C 92.596 94.774 92.187 94.638 91.779 94.638 Z"
        fill="#ffffff"/>
    <path
        id="path_7"
        d="M 64 0 C 47.033 0 30.743 6.747 18.745 18.745 C 6.747 30.743 0 47.033 0 64 C 0 80.967 6.747 97.257 18.745 109.255 C 30.743 121.253 47.033 128 64 128 C 80.967 128 97.257 121.253 109.255 109.255 C 121.253 97.257 128 80.967 128 64 C 128 47.033 121.253 30.743 109.255 18.745 C 97.257 6.747 80.967 0 64 0 Z"
        fill="#e73458"
        stroke-width="1"/>
    <g id="group">
        <path
            id="path_1_1"
            d="M 63.6 43.2 C 68.9 43.2 73.2 38.9 73.2 33.6 C 73.2 28.3 68.9 24 63.6 24 C 58.3 24 54 28.2 54 33.5 C 54 38.9 58.3 43.2 63.6 43.2 Z M 65.6 46.3 C 65.3 46 65.1 45.9 64.7 45.9 L 62.3 45.9 C 62 45.9 61.7 46 61.4 46.3 C 61 46.7 61 47.2 61.3 47.6 L 62.6 49.5 L 62 54.4 L 63.1 57.4 C 63.2 57.7 63.6 57.7 63.7 57.4 L 64.8 54.4 L 64.2 49.5 L 65.5 47.6 C 66 47.2 65.9 46.7 65.6 46.3 Z"
            fill="#ffffff"
            stroke-width="1"/>
        <path
            id="path_2_1"
            d="M 48.8 68.6 L 78.4 68.6 C 79.2 68.6 79.8 68 79.8 67.2 L 79.8 54.8 C 79.8 51.3 77.5 48 74 46.8 L 71.3 46 C 70.8 45.9 70.3 46.1 70.2 46.6 L 63.7 64.3 L 57.2 46.6 C 57.1 46.2 56.7 46 56.3 46 L 56 46 L 53.3 46.9 C 49.8 48 47.5 51.2 47.5 54.9 L 47.5 67.3 C 47.4 68 48 68.6 48.8 68.6 Z M 32.7 48.1 C 38 48.1 42.3 43.8 42.3 38.5 C 42.3 33.2 38 28.9 32.7 28.9 C 27.4 28.9 23.1 33.2 23.1 38.5 C 23.1 43.8 27.4 48.1 32.7 48.1 Z"
            fill="#ffffff"
            stroke-width="1"/>
        <path
            id="path_3_1"
            d="M 49.2 74.6 L 41.5 74.6 L 41.5 59.4 C 41.5 54.6 37.6 50.7 32.8 50.7 C 28 50.7 24 54.6 24 59.4 L 24 79.9 C 24 84.6 27.8 88.3 32.4 88.3 L 42.4 88.3 L 42.4 102 C 42.4 103.3 43.4 104.4 44.8 104.4 L 54 104.4 C 55.3 104.4 56.4 103.4 56.4 102 L 56.4 81.7 C 56.3 77.7 53.1 74.6 49.2 74.6 Z M 94.4 48.1 C 99.7 48.1 104 43.8 104 38.5 C 104 33.2 99.7 28.9 94.4 28.9 C 89.1 28.9 84.8 33.2 84.8 38.5 C 84.8 43.8 89.1 48.1 94.4 48.1 Z M 94.4 50.8 C 89.6 50.8 85.7 54.7 85.7 59.5 L 85.7 74.7 L 78 74.7 C 74.1 74.7 70.9 77.9 70.9 81.8 L 70.9 102.2 C 70.9 103.5 71.9 104.6 73.3 104.6 L 82.5 104.6 C 83.8 104.6 84.9 103.6 84.9 102.2 L 84.9 88.4 L 94.9 88.4 C 99.6 88.4 103.3 84.6 103.3 80 L 103.3 59.5 C 103.1 54.7 99.2 50.8 94.4 50.8 Z"
            fill="#ffffff"
            stroke-width="1"/>
    </g>
</svg>
