<svg
    xmlns="http://www.w3.org/2000/svg"
    viewBox="0 0 128 128"
    id="vector">
    <path
        id="path"
        d="M 64 0 C 99.346 0 128 28.654 128 64 C 128 99.346 99.346 128 64 128 C 28.654 128 0 99.346 0 64 C 0 28.654 28.654 0 64 0 Z"
        fill="#e73458"/>
    <path
        id="path_1"
        d="M 73.668 51.881 C 72.987 51.881 72.579 52.426 72.579 52.97 C 72.579 53.651 73.124 54.06 73.668 54.06 C 74.349 54.06 74.758 53.515 74.758 52.97 C 74.894 52.426 74.349 51.881 73.668 51.881 Z"
        fill="#ffffff"/>
    <path
        id="path_2"
        d="M 52.834 72.715 C 52.153 72.715 51.745 73.26 51.745 73.804 C 51.745 74.485 52.289 74.894 52.834 74.894 C 53.515 74.894 53.923 74.349 53.923 73.804 C 54.06 73.123 53.515 72.715 52.834 72.715 Z"
        fill="#ffffff"/>
    <path
        id="path_3"
        d="M 91.234 41.123 C 90.826 40.987 90.417 41.123 90.145 41.396 L 85.379 46.162 L 83.064 46.162 L 80.613 43.574 L 80.613 41.26 L 85.243 36.494 C 85.515 36.221 85.651 35.813 85.515 35.404 C 85.379 34.996 85.106 34.723 84.834 34.587 C 83.609 34.179 82.383 34.043 81.157 34.043 C 77.481 34.043 74.077 35.813 71.898 38.809 C 69.855 41.668 69.174 45.072 70.128 48.477 L 61.685 56.919 L 47.66 42.894 L 47.66 40.17 C 47.66 39.762 47.387 39.353 47.115 39.217 L 39.081 34.315 C 38.672 34.043 37.991 34.179 37.719 34.451 L 34.451 37.719 C 34.043 38.128 34.043 38.672 34.315 39.081 L 39.217 47.115 C 39.489 47.523 39.762 47.66 40.17 47.66 L 42.894 47.66 L 56.919 61.685 L 48.477 70.128 C 45.209 69.174 41.668 69.855 38.809 71.898 C 35.813 74.077 34.043 77.481 34.043 81.157 C 34.043 82.383 34.179 83.609 34.587 84.834 C 34.723 85.243 34.996 85.515 35.404 85.651 C 35.813 85.787 36.221 85.651 36.494 85.379 L 41.26 80.613 L 43.574 80.613 L 46.162 83.2 L 46.162 85.515 L 41.396 90.281 C 41.123 90.553 40.987 90.962 41.123 91.37 C 41.26 91.779 41.532 92.051 41.94 92.187 C 43.166 92.596 44.391 92.732 45.617 92.732 C 49.294 92.732 52.698 90.962 54.877 87.966 C 56.919 85.106 57.6 81.702 56.647 78.298 L 63.455 71.489 L 64.953 73.123 L 64.272 73.804 C 63.864 74.213 63.864 75.03 64.272 75.438 C 64.681 75.847 65.498 75.847 65.906 75.438 L 66.587 74.757 L 81.157 90.553 C 83.881 93.277 88.238 93.277 90.826 90.553 C 93.549 87.83 93.549 83.472 90.826 80.885 L 75.03 66.451 L 75.711 65.77 C 76.119 65.362 76.119 64.545 75.711 64.136 C 75.302 63.728 74.485 63.728 74.077 64.136 L 73.396 64.817 L 71.762 63.319 L 78.57 56.511 C 79.523 56.783 80.477 56.919 81.566 56.919 C 87.83 56.919 93.004 51.745 93.004 45.481 C 93.004 44.255 92.868 43.03 92.46 41.804 C 91.915 41.532 91.506 41.26 91.234 41.123 Z M 43.983 45.753 C 43.711 45.481 43.438 45.481 43.166 45.481 L 40.579 45.481 L 36.494 38.672 L 38.4 36.766 L 45.209 40.851 L 45.209 43.438 C 45.209 43.711 45.345 43.983 45.481 44.255 L 59.915 58.689 L 58.281 60.323 L 43.983 45.753 Z M 73.123 68.085 L 88.919 82.655 C 90.689 84.426 90.689 87.285 88.919 89.055 C 87.149 90.826 84.289 90.826 82.519 89.055 L 67.949 73.26 L 73.123 68.085 Z M 71.489 66.587 L 66.451 71.626 L 64.953 69.991 L 69.855 65.089 L 71.489 66.587 Z M 81.157 54.74 C 80.204 54.74 79.115 54.604 78.298 54.196 C 77.889 54.06 77.481 54.196 77.072 54.468 C 71.353 60.187 58.962 72.579 54.468 77.072 C 54.196 77.345 54.06 77.889 54.196 78.298 C 55.149 81.157 54.74 84.153 52.97 86.604 C 51.2 89.055 48.477 90.417 45.481 90.417 C 45.209 90.417 44.8 90.417 44.528 90.417 L 48.204 86.74 C 48.477 86.468 48.477 86.196 48.477 85.923 L 48.477 82.655 C 48.477 82.383 48.34 82.111 48.204 81.838 L 44.936 78.57 C 44.664 78.298 44.391 78.298 44.119 78.298 L 40.851 78.298 C 40.579 78.298 40.306 78.434 40.034 78.57 L 36.494 82.247 C 36.494 81.974 36.494 81.566 36.494 81.294 C 36.494 78.298 37.855 75.574 40.306 73.804 C 42.757 72.034 45.753 71.626 48.613 72.579 C 49.021 72.715 49.43 72.579 49.838 72.306 L 72.443 49.702 C 72.715 49.43 72.851 48.885 72.715 48.477 C 71.762 45.617 72.17 42.621 73.94 40.17 C 75.711 37.719 78.434 36.357 81.43 36.357 C 81.838 36.357 82.111 36.357 82.519 36.357 L 78.979 40.034 C 78.706 40.306 78.706 40.579 78.706 40.851 L 78.706 44.119 C 78.706 44.391 78.843 44.664 78.979 44.936 L 82.111 48.204 C 82.383 48.477 82.655 48.613 82.928 48.613 L 86.196 48.613 C 86.468 48.613 86.74 48.477 87.013 48.34 L 90.689 44.664 C 90.689 44.936 90.689 45.345 90.689 45.617 C 90.281 50.655 86.196 54.74 81.157 54.74 Z"
        fill="#ffffff"/>
    <path
        id="path_4"
        d="M 69.583 55.421 L 55.285 69.719 C 54.877 70.128 54.877 70.945 55.285 71.353 C 55.694 71.762 56.511 71.762 56.919 71.353 L 71.217 57.055 C 71.626 56.647 71.626 55.83 71.217 55.421 C 70.809 55.013 70.128 55.013 69.583 55.421 Z"
        fill="#ffffff"/>
    <path
        id="path_5"
        d="M 84.153 85.787 C 84.562 86.196 85.379 86.196 85.787 85.787 C 86.196 85.379 86.196 84.562 85.787 84.153 L 75.438 73.804 C 75.03 73.396 74.213 73.396 73.804 73.804 C 73.396 74.213 73.396 75.03 73.804 75.438 L 84.153 85.787 Z"
        fill="#ffffff"/>
    <path
        id="path_6"
        d="M 64 0 C 47.032 0 30.742 6.747 18.746 18.746 C 6.747 30.742 0 47.032 0 64 C 0 80.968 6.747 97.258 18.746 109.254 C 30.742 121.253 47.032 128 64 128 C 80.968 128 97.258 121.253 109.254 109.254 C 121.253 97.258 128 80.968 128 64 C 128 47.032 121.253 30.742 109.254 18.746 C 97.258 6.747 80.968 0 64 0 Z"
        fill="#e5008c"
        stroke-width="1"/>
    <path
        id="path_1_1"
        d="M 55.04 68 C 53.28 69.76 50.56 69.76 48.8 68 C 48.16 67.36 47.2 67.36 46.56 68 C 45.92 68.64 45.92 69.6 46.56 70.24 C 48 71.68 50.08 72.48 52 72.48 C 53.92 72.48 55.84 71.68 57.44 70.24 C 58.08 69.6 58.08 68.64 57.44 68 C 56.64 67.36 55.68 67.36 55.04 68 Z M 79.84 68 C 78.08 69.76 75.36 69.76 73.6 68 C 72.96 67.36 72 67.36 71.36 68 C 70.72 68.64 70.72 69.6 71.36 70.24 C 72.8 71.68 74.88 72.48 76.8 72.48 C 78.72 72.48 80.64 71.68 82.24 70.24 C 82.88 69.6 82.88 68.64 82.24 68 C 81.6 67.36 80.48 67.36 79.84 68 Z"
        fill="#ffffff"
        stroke-width="1"/>
    <path
        id="path_2_1"
        d="M 72.64 94.72 C 70.4 96 68 96.8 65.44 97.6 C 51.2 93.92 41.28 81.12 41.28 66.24 L 41.28 64.16 L 41.92 64 C 50.88 61.92 59.52 58.4 67.2 53.28 C 72.48 60.16 80.64 64.32 89.44 64.32 L 89.6 64.32 L 89.6 66.24 C 89.6 71.52 88.32 76.8 85.76 81.6 C 85.28 82.4 85.6 83.36 86.4 83.68 C 86.56 83.84 86.88 83.84 87.2 83.84 C 87.68 83.84 88.32 83.52 88.64 83.04 C 89.76 80.8 90.72 78.56 91.36 76.16 L 92.16 76.16 C 93.92 76.16 95.68 75.52 96.96 74.24 C 98.24 72.96 98.88 71.2 98.88 69.44 L 98.88 65.44 C 98.88 61.92 96.16 59.04 92.8 58.72 L 92.8 56.32 C 92.8 47.2 88.32 39.04 81.28 34.08 C 80.16 26.4 73.44 20.48 65.44 20.48 C 57.44 20.48 50.88 26.24 49.6 34.08 C 42.72 39.04 38.08 47.2 38.08 56.32 L 38.08 58.72 C 34.72 59.04 32 61.92 32 65.44 L 32 69.44 C 32 71.2 32.64 72.96 33.92 74.24 C 35.2 75.52 36.96 76.16 38.72 76.16 L 39.52 76.16 C 43.04 88 52.48 97.6 64.96 100.64 L 65.6 100.64 C 68.48 100 71.2 98.88 73.76 97.44 C 74.56 96.96 74.88 96 74.4 95.36 C 74.4 94.56 73.44 94.4 72.64 94.72 Z M 95.68 65.44 L 95.68 69.44 C 95.68 70.4 95.36 71.36 94.56 72 C 93.92 72.64 92.96 73.12 92 73.12 C 92.48 70.88 92.64 68.64 92.64 66.4 L 92.64 61.92 C 94.4 62.24 95.68 63.68 95.68 65.44 Z M 65.44 23.52 C 70.88 23.52 75.52 26.88 77.44 31.68 C 73.76 29.92 69.76 28.96 65.44 28.96 C 61.12 28.96 57.12 29.92 53.44 31.68 C 55.36 26.88 60.16 23.52 65.44 23.52 Z M 65.44 32 C 78.72 32 89.6 42.88 89.6 56.16 L 89.6 61.12 L 89.44 61.12 C 81.76 61.12 74.56 57.6 69.76 51.52 C 70.88 50.72 71.84 49.92 72.96 49.12 C 73.6 48.64 73.76 47.52 73.28 46.88 C 72.8 46.24 71.68 46.08 71.04 46.56 C 62.4 53.44 52 58.4 41.28 60.8 L 41.28 56 C 41.28 42.88 52.16 32 65.44 32 Z M 38.88 73.12 C 37.92 73.12 36.96 72.8 36.32 72 C 35.68 71.36 35.2 70.4 35.2 69.44 L 35.2 65.44 C 35.2 63.68 36.48 62.24 38.24 61.92 L 38.24 66.4 C 38.24 68.64 38.4 70.88 38.88 73.12 Z"
        fill="#ffffff"
        stroke-width="1"/>
    <path
        id="path_3_1"
        d="M 75.52 46.4 C 75.84 46.4 76.32 46.24 76.64 45.92 C 77.28 45.28 77.44 44.32 76.8 43.68 C 76.16 43.04 75.2 42.88 74.56 43.52 C 73.92 44.16 73.76 45.12 74.4 45.76 C 74.72 46.24 75.2 46.4 75.52 46.4 Z M 84.64 87.36 L 81.12 78.24 C 80.64 76.8 79.2 76 77.6 76.32 C 71.52 77.44 66.56 82.4 65.44 88.48 C 65.12 89.92 65.92 91.36 67.36 91.84 L 76.32 95.52 L 83.52 102.72 C 83.84 103.04 84.32 103.2 84.64 103.2 C 84.96 103.2 85.44 103.04 85.76 102.72 C 86.4 102.08 86.4 101.12 85.76 100.48 L 79.52 94.24 L 83.2 90.56 L 91.36 98.72 C 92 99.36 92.96 99.36 93.6 98.72 C 94.24 98.08 94.24 97.12 93.6 96.48 L 84.64 87.36 Z M 78.08 79.52 L 81.28 87.84 L 76.8 92.32 L 68.8 88.96 C 69.6 84.16 73.44 80.48 78.08 79.52 Z M 96.64 100 C 96.16 100 95.84 100.16 95.52 100.48 C 95.2 100.8 95.04 101.28 95.04 101.6 C 95.04 102.08 95.2 102.4 95.52 102.72 C 95.84 103.04 96.32 103.2 96.64 103.2 C 97.12 103.2 97.44 103.04 97.76 102.72 C 98.08 102.4 98.24 101.92 98.24 101.6 C 98.24 101.12 98.08 100.8 97.76 100.48 C 97.6 100.16 97.12 100 96.64 100 Z"
        fill="#ffffff"
        stroke-width="1"/>
    <path
        id="path_4_1"
        d="M 64 0 C 47.032 0 30.742 6.747 18.746 18.746 C 6.747 30.742 0 47.032 0 64 C 0 80.968 6.747 97.258 18.746 109.254 C 30.742 121.253 47.032 128 64 128 C 80.968 128 97.258 121.253 109.254 109.254 C 121.253 97.258 128 80.968 128 64 C 128 47.032 121.253 30.742 109.254 18.746 C 97.258 6.747 80.968 0 64 0 Z"
        fill="#e5008c"
        stroke-width="1"/>
    <path
        id="path_5_1"
        d="M 87.04 90.56 L 87.04 56.32 L 88.16 56 C 89.92 55.36 90.72 53.6 90.24 51.84 C 89.76 50.56 88.48 49.6 87.2 49.6 L 87.2 30.56 C 87.2 29.6 86.4 28.96 85.6 28.96 C 84.64 28.96 84 29.76 84 30.56 L 84 50.56 L 76.48 53.12 C 75.84 51.36 75.04 49.28 74.72 48.16 C 73.44 44.64 71.68 42.56 69.12 41.76 C 67.68 45.76 67.2 47.2 66.24 49.76 C 67.2 57.6 66.56 53.12 69.6 70.72 C 69.76 71.68 68.96 72.64 68 72.64 L 55.2 72.64 C 54.24 72.64 53.44 71.68 53.6 70.72 C 56.64 53.12 56 57.6 56.8 49.92 C 54.72 43.84 54.88 44.48 53.92 41.76 C 51.52 42.4 49.6 44.64 48.48 48 C 46.08 54.72 40.8 69.28 40.8 69.44 C 40.32 70.88 40.96 72.64 42.24 73.28 L 42.24 77.76 C 39.04 77.76 37.12 80 37.12 82.56 L 37.12 88.8 C 37.12 89.44 37.6 90.08 38.4 90.08 L 49.28 90.08 C 49.92 90.08 50.56 89.6 50.56 88.8 L 50.56 82.56 C 50.56 80.16 48.8 77.76 45.44 77.76 L 45.44 73.28 C 46.08 72.96 46.56 72.32 46.88 71.52 C 46.88 71.36 50.72 60.96 53.28 53.6 C 53.12 55.04 48.96 76.16 48.96 76.16 C 50.56 76.96 51.68 78.24 52.32 79.84 L 52.96 79.84 L 52.96 103.36 C 52.96 105.44 54.72 107.2 56.8 107.2 C 58.88 107.2 60.64 105.44 60.64 103.36 L 60.64 79.84 L 62.24 79.84 L 62.24 103.36 C 62.24 105.44 64 107.2 66.08 107.2 C 68.16 107.2 69.92 105.44 69.92 103.36 L 69.92 79.84 L 72.32 79.84 C 73.44 79.84 74.24 78.88 74.08 77.76 C 73.76 76 69.6 55.04 69.44 53.6 C 70.24 55.68 71.04 57.92 71.04 58.08 C 71.68 59.68 73.44 60.64 75.2 60 L 83.68 57.12 L 83.68 90.24 C 80.96 90.88 79.04 93.44 79.04 96.32 L 79.04 96.8 L 91.68 96.8 L 91.68 96.32 C 91.68 93.76 89.76 91.2 87.04 90.56 Z M 87.04 90.56"
        fill="#ffffff"
        stroke-width="1"/>
    <path
        id="path_6_1"
        d="M 79.04 99.68 L 79.04 105.28 C 79.04 106.56 81.92 107.52 85.28 107.52 C 88.8 107.52 91.52 106.56 91.52 105.28 L 91.52 99.68 L 79.04 99.68 Z M 79.04 99.68 M 68.16 32.64 C 68.16 36.32 65.12 39.36 61.44 39.36 C 57.76 39.36 54.72 36.32 54.72 32.64 C 54.72 28.96 57.76 25.92 61.44 25.92 C 65.12 25.92 68.16 28.8 68.16 32.64 Z M 68.16 32.64 M 56.32 41.44 C 56.96 43.04 58.56 47.68 59.2 49.44 L 63.52 49.44 C 64.16 47.68 65.76 43.04 66.4 41.44 L 56.32 41.44 Z M 56.32 41.44"
        fill="#ffffff"
        stroke-width="1"/>
    <g
        id="group_2"
        transform="translate(-430.4 -153.60000000000002)">
        <g
            id="group_1"
            transform="translate(430.4 153.60000000000002)">
            <path
                id="path_7"
                d="M 128 64 C 128 80.967 121.253 97.257 109.255 109.255 C 97.257 121.253 80.967 128 64 128 C 47.033 128 30.743 121.253 18.745 109.255 C 6.747 97.257 0 80.967 0 64 C 0 47.033 6.747 30.743 18.745 18.745 C 30.743 6.747 47.033 0 64 0 C 80.967 0 97.257 6.747 109.255 18.745 C 121.253 30.743 128 47.033 128 64 Z"
                fill="#c6275f"/>
            <g
                id="group"
                transform="translate(38.400000000000006 38.400000000000006)">
                <path
                    id="path_8"
                    d="M 29.1 23.755 L 44.401 8.43"
                    fill="#0086af"/>
                <path
                    id="path_9"
                    d="M 29.1 23.755 L 44.401 8.43"
                    fill="none"
                    stroke="#ffffff"
                    stroke-width="2.2399999999999998"
                    stroke-linecap="round"
                    stroke-linejoin="round"/>
                <path
                    id="path_10"
                    d="M 19.311 33.559 L 23.421 29.443"
                    fill="#0086af"/>
                <path
                    id="path_11"
                    d="M 19.311 33.559 L 23.421 29.443"
                    fill="none"
                    stroke="#ffffff"
                    stroke-width="2.2399999999999998"
                    stroke-linecap="round"
                    stroke-linejoin="round"/>
                <path
                    id="path_12"
                    d="M 14.389 28.915 L 24.107 38.68"
                    fill="#0086af"/>
                <path
                    id="path_13"
                    d="M 14.389 28.915 L 24.107 38.68"
                    fill="none"
                    stroke="#ffffff"
                    stroke-width="2.2399999999999998"
                    stroke-linecap="round"
                    stroke-linejoin="round"/>
                <path
                    id="path_14"
                    d="M 22.258 36.901 L 7.546 51.614 C 5.964 53.195 3.401 53.195 1.819 51.614 L 1.819 51.614 C 0.238 50.033 0.238 47.469 1.819 45.888 L 16.532 31.175 L 22.258 36.901 L 22.258 36.901 Z"
                    fill="none"
                    stroke="#ffffff"
                    stroke-width="2.2399999999999998"
                    stroke-linecap="round"
                    stroke-linejoin="round"/>
                <path
                    id="path_15"
                    d="M 42.829 6.51 L 49.229 0.109 L 52.8 3.68 L 46.399 10.08 Z"
                    fill="none"
                    stroke="#ffffff"
                    stroke-width="2.2399999999999998"
                    stroke-linecap="round"
                    stroke-linejoin="round"/>
                <path
                    id="path_16"
                    d="M 38.76 34.264 L 17.919 13.422 C 18.407 12.293 18.68 11.028 18.68 9.661 C 18.68 4.521 14.48 0.388 9.34 0.388 C 8.11 0.388 6.918 0.644 5.843 1.077 L 9.993 4.368 L 9.311 9.725 L 3.855 10.531 L 0.649 6.307 C 0.231 7.366 0 8.521 0 9.729 C 0 14.869 4.167 19.036 9.307 19.036 C 10.638 19.036 11.9 18.752 13.044 18.249 L 33.933 39.137 C 33.43 40.281 33.146 41.545 33.146 42.875 C 33.146 48.015 37.312 52.183 42.452 52.183 C 43.682 52.183 44.857 51.944 45.933 51.509 L 41.774 48.228 L 42.452 42.875 L 47.906 42.071 L 51.11 46.297 C 51.53 45.238 51.76 44.083 51.76 42.875 C 51.76 37.735 47.66 33.501 42.52 33.501 C 41.155 33.501 39.889 33.775 38.76 34.264 L 38.76 34.264 Z"
                    fill="none"
                    stroke="#ffffff"
                    stroke-width="2.2399999999999998"
                    stroke-linecap="round"
                    stroke-linejoin="round"/>
            </g>
        </g>
    </g>
    <path
        id="path_17"
        d="M 64 0 C 47.033 0 30.743 6.747 18.745 18.745 C 6.747 30.743 0 47.033 0 64 C 0 80.967 6.747 97.257 18.745 109.255 C 30.743 121.253 47.033 128 64 128 C 80.967 128 97.257 121.253 109.255 109.255 C 121.253 97.257 128 80.967 128 64 C 128 47.033 121.253 30.743 109.255 18.745 C 97.257 6.747 80.967 0 64 0 Z"
        fill="#e73458"
        stroke-width="1"/>
    <g id="group_3">
        <path
            id="path_1_2"
            d="M 81.1 85.9 L 71.3 85.9 L 71.3 90.8 L 66.4 95.7 L 85.9 95.7 L 81.1 90.8 Z M 39.6 32.3 L 29.8 32.3 C 27.1 32.3 24.9 34.5 24.9 37.2 L 24.9 90.8 C 24.9 93.5 27.1 95.7 29.8 95.7 L 39.6 95.7 C 42.3 95.7 44.5 93.5 44.5 90.8 L 44.5 37.2 C 44.5 34.5 42.3 32.3 39.6 32.3 Z M 34.8 81.1 L 29.9 81.1 L 29.9 76.2 L 34.8 76.2 L 34.8 81.1 Z M 39.6 56.7 L 29.8 56.7 L 29.8 51.8 L 39.6 51.8 L 39.6 56.7 Z M 39.6 46.9 L 29.8 46.9 L 29.8 42 L 39.6 42 L 39.6 46.9 Z M 98.1 42.1 L 54.2 42.1 C 51.5 42.1 49.3 44.3 49.3 47 L 49.3 76.2 C 49.3 78.9 51.5 81.1 54.2 81.1 L 98.1 81.1 C 100.8 81.1 103 78.9 103 76.2 L 103 46.9 C 103 44.3 100.8 42.1 98.1 42.1 Z M 78.6 78.6 L 73.7 78.6 L 73.7 73.7 L 78.6 73.7 L 78.6 78.6 Z M 98.1 71.3 L 54.2 71.3 L 54.2 46.9 L 98.1 46.9 L 98.1 71.3 Z"
            fill="#ffffff"
            stroke-width="1"/>
    </g>
    <g
        id="group_6"
        transform="translate(-236.8 -561.6)">
        <g
            id="group_5"
            transform="translate(236.8 561.6)">
            <path
                id="path_18"
                d="M 128 64 C 128 80.967 121.253 97.257 109.255 109.255 C 97.257 121.253 80.967 128 64 128 C 47.033 128 30.743 121.253 18.745 109.255 C 6.747 97.257 0 80.967 0 64 C 0 47.033 6.747 30.743 18.745 18.745 C 30.743 6.747 47.033 0 64 0 C 80.967 0 97.257 6.747 109.255 18.745 C 121.253 30.743 128 47.033 128 64 Z"
                fill="#c6275f"/>
            <g
                id="group_4"
                transform="translate(35.2 41.6)">
                <path
                    id="path_19"
                    d="M 27.727 34.718 C 27.727 35.513 27.083 36.156 26.289 36.156 C 25.494 36.156 24.85 35.513 24.85 34.718 C 24.85 33.923 25.494 33.28 26.289 33.28 C 27.083 33.28 27.727 33.923 27.727 34.718"
                    fill="#ffffff"/>
                <path
                    id="path_20"
                    d="M 43.2 39.253 L 9.835 39.253 C 5.199 39.253 1.405 35.462 1.405 30.827 L 1.405 8.986 C 1.405 4.351 5.199 0.56 9.835 0.56 L 41.78 0.56 C 46.416 0.56 50.209 4.351 50.209 8.986 L 50.209 20.739"
                    fill="none"
                    stroke="#ffffff"
                    stroke-width="2.2399999999999998"/>
                <path
                    id="path_21"
                    d="M 51.768 41.113 C 51.768 41.908 51.123 42.552 50.329 42.552 C 49.534 42.552 48.891 41.908 48.891 41.113 C 48.891 40.319 49.534 39.675 50.329 39.675 C 51.123 39.675 51.768 40.319 51.768 41.113"
                    fill="#ffffff"/>
                <path
                    id="path_22"
                    d="M 0.398 29.738 L 43.949 29.738"
                    fill="none"
                    stroke="#ffffff"
                    stroke-width="2.2399999999999998"/>
                <path
                    id="path_23"
                    d="M 52.679 44.94 L 47.979 44.94 C 45.661 44.94 43.765 43.045 43.765 40.727 L 43.765 24.952 C 43.765 22.635 45.661 20.739 47.979 20.739 L 52.679 20.739 C 54.997 20.739 56.893 22.635 56.893 24.952 L 56.893 40.727 C 56.893 43.045 54.997 44.94 52.679 44.94 L 52.679 44.94 Z"
                    fill="none"
                    stroke="#ffffff"
                    stroke-width="2.2399999999999998"/>
                <path
                    id="path_24"
                    d="M 26.331 39.616 L 26.331 43.83"
                    fill="none"
                    stroke="#ffffff"
                    stroke-width="2.2399999999999998"/>
                <path
                    id="path_25"
                    d="M 11.637 44.69 L 41.139 44.69"
                    fill="none"
                    stroke="#ffffff"
                    stroke-width="2.2399999999999998"
                    stroke-linecap="round"
                    stroke-linejoin="round"/>
            </g>
        </g>
    </g>
    <path
        id="path_26"
        d="M 64 0 C 47.033 0 30.743 6.747 18.745 18.745 C 6.747 30.743 0 47.033 0 64 C 0 80.967 6.747 97.257 18.745 109.255 C 30.743 121.253 47.033 128 64 128 C 80.967 128 97.257 121.253 109.255 109.255 C 121.253 97.257 128 80.967 128 64 C 128 47.033 121.253 30.743 109.255 18.745 C 97.257 6.747 80.967 0 64 0 Z"
        fill="#e73458"
        stroke-width="1"/>
    <path
        id="path_1_3"
        d="M 69.5 37.7 C 68.8 36.1 66.8 35.3 65.2 36.1 L 60.9 38.1 C 61.8 38.6 62.4 39.5 62.5 40.5 C 62.6 41.2 63.2 41.7 63.9 41.7 C 64.6 41.7 65.1 41.2 65.3 40.7 C 65.9 38.8 67.8 37.7 69.8 38 C 69.6 37.9 69.6 37.8 69.5 37.7 Z M 92.9 58.9 L 76.5 58.9 L 76.5 67.5 C 76.5 67.9 76.5 68.2 76.4 68.6 L 95 68.6 L 95 61 C 95 59.9 94 58.9 92.9 58.9 Z M 84.2 64.8 C 83.3 64.8 82.6 64.1 82.6 63.2 C 82.6 62.3 83.3 61.6 84.2 61.6 C 85.1 61.6 85.8 62.3 85.8 63.2 C 85.7 64.1 85.1 64.8 84.2 64.8 Z M 90 65.1 C 89 65.1 88.1 64.2 88.1 63.2 C 88.1 62.2 89 61.3 90 61.3 C 91 61.3 91.9 62.2 91.9 63.2 C 92 64.3 91.2 65.1 90 65.1 Z M 74.4 71 C 73.8 71.4 73.2 71.5 72.4 71.5 L 56.9 71.6 L 56.9 98 C 56.9 99.1 57.9 100.1 59 100.1 L 92.9 100.1 C 94 100.1 95 99.1 95 98 L 95 71 L 74.4 71 Z M 82.4 91.9 C 78.9 95.4 73.2 95.4 69.6 91.9 C 66.1 88.4 66.1 82.7 69.6 79.1 C 73.1 75.6 78.8 75.6 82.4 79.1 C 85.8 82.7 85.8 88.4 82.4 91.9 Z"
        fill="#ffffff"
        stroke-width="1"/>
    <path
        id="path_2_2"
        d="M 71.4 81.3 C 69.2 83.7 69.3 87.4 71.6 89.7 C 74 92.1 77.7 92.1 80 89.9 L 71.4 81.3 Z M 79.5 47.9 L 73.3 42.2 L 69.2 41 C 68.7 40.9 68.1 41.1 68 41.6 C 67.4 43.3 65.8 44.6 63.8 44.6 C 63.2 44.6 62.6 44.5 61.9 44.2 C 61.9 45.9 61.2 47.8 59.7 49 L 54.2 53.3 L 54.4 67.4 C 54.4 68 54.9 68.5 55.5 68.5 L 72.5 68.4 C 73.1 68.4 73.6 67.9 73.6 67.3 L 73.5 50.9 L 75.5 52.9 C 76 53.4 76.7 53.3 77.1 52.8 L 79.7 49 C 80 48.7 80 48.2 79.5 47.9 Z"
        fill="#ffffff"
        stroke-width="1"/>
    <path
        id="path_3_2"
        d="M 58.7 42.4 C 57.6 40.9 55.5 40.7 54 41.8 L 46.3 48 L 40.2 42.9 L 45.3 45.3 C 46.9 43.9 45.8 44.8 51.1 40.7 L 44.5 38.6 C 43.9 38.4 43.3 38.4 42.6 38.2 C 41.5 38.1 38.9 38 33.2 37.6 C 30.5 37.4 28.1 39.5 28 42.2 L 26.4 67.2 L 26.3 96.2 C 26.3 98.4 28 100.2 30.3 100.2 C 32.5 100.2 34.3 98.5 34.3 96.2 C 34.4 65.4 34.4 67.4 34.3 67.1 L 36.5 67.1 L 41.3 79.9 L 39.9 96 C 39.8 98.2 41.4 100.1 43.5 100.2 C 45.7 100.3 47.6 98.7 47.7 96.6 L 49.2 79.6 C 49.2 79 49.2 78.5 49 77.9 L 44.9 67 L 45.5 58.8 C 44.3 58.7 43.1 58.1 42.4 56.9 L 36 48.1 L 44.2 54.9 C 45.4 55.9 47.2 55.9 48.4 54.9 L 58.2 47.1 C 59.4 45.9 59.7 43.9 58.7 42.4 Z M 39.6 20.8 C 38.059 20.8 36.556 21.288 35.309 22.194 C 34.062 23.1 33.134 24.378 32.657 25.844 C 32.181 27.31 32.181 28.89 32.657 30.356 C 33.134 31.822 34.062 33.1 35.309 34.006 C 36.556 34.912 38.059 35.4 39.6 35.4 C 41.535 35.4 43.393 34.63 44.762 33.262 C 46.13 31.893 46.9 30.035 46.9 28.1 C 46.9 26.165 46.13 24.307 44.762 22.938 C 43.393 21.57 41.535 20.8 39.6 20.8 Z M 77.5 35.1 L 76.1 34.7 C 75.9 34.6 75.6 34.3 75.5 34.1 L 75.1 32.7 C 75 32.5 74.7 32.5 74.6 32.7 L 74.2 34.1 C 74.1 34.3 73.8 34.6 73.6 34.7 L 72.2 35.1 C 72 35.2 72 35.5 72.2 35.6 L 73.6 36 C 73.8 36.1 74.1 36.4 74.2 36.6 L 74.6 38 C 74.7 38.2 75 38.2 75.1 38 L 75.5 36.6 C 75.6 36.4 75.9 36.1 76.1 36 L 77.5 35.6 C 77.8 35.4 77.8 35.2 77.5 35.1 Z M 71.1 29.4 L 69.8 29 C 69.6 28.9 69.3 28.8 69.3 28.5 L 69 27.3 C 69 27.1 68.6 27.1 68.6 27.3 L 68.2 28.5 C 68.1 28.7 68 29 67.6 29.1 L 66.4 29.5 C 66.2 29.5 66.2 29.9 66.4 29.9 L 67.6 30.3 C 67.8 30.3 68.1 30.4 68.2 30.8 L 68.6 32 C 68.6 32.2 69 32.2 69 32 L 69.4 30.8 C 69.5 30.6 69.6 30.3 70 30.2 L 71.2 29.8 C 71.3 29.7 71.3 29.4 71.1 29.4 Z M 75.3 24.5 L 74.4 24.3 C 74.2 24.3 74 24.1 74 23.9 L 73.8 23 C 73.8 22.9 73.6 22.9 73.6 23 L 73.4 23.9 C 73.4 24.1 73.2 24.3 73 24.3 L 71.9 24.5 C 71.8 24.5 71.8 24.7 71.9 24.7 L 72.8 24.9 C 73 24.9 73.2 25.1 73.2 25.3 L 73.4 26.2 C 73.4 26.3 73.6 26.3 73.6 26.2 L 73.8 25.3 C 73.8 25.1 74 24.9 74.2 24.9 L 75.1 24.7 C 75.5 24.8 75.5 24.7 75.3 24.5 Z"
        fill="#ffffff"
        stroke-width="1"/>
    <path
        id="path_27"
        d="M 64 0 C 99.346 0 128 28.654 128 64 C 128 99.346 99.346 128 64 128 C 28.654 128 0 99.346 0 64 C 0 28.654 28.654 0 64 0 Z"
        fill="#e73458"/>
    <path
        id="path_28"
        d="M 83.608 86.604 L 83.608 57.464 L 84.562 57.191 C 86.06 56.647 86.74 55.149 86.332 53.651 C 85.923 52.562 84.834 51.745 83.745 51.745 L 83.745 35.54 C 83.745 34.723 83.064 34.179 82.383 34.179 C 81.566 34.179 81.021 34.86 81.021 35.54 L 81.021 52.562 L 74.621 54.74 C 74.077 53.243 73.396 51.472 73.123 50.519 C 72.034 47.523 70.536 45.753 68.357 45.072 C 67.132 48.477 66.723 49.702 65.906 51.881 C 66.723 58.553 66.179 54.74 68.766 69.719 C 68.902 70.536 68.221 71.353 67.404 71.353 L 56.511 71.353 C 55.694 71.353 55.013 70.536 55.149 69.719 C 57.736 54.74 57.191 58.553 57.872 52.017 C 56.102 46.843 56.238 47.387 55.421 45.072 C 53.379 45.617 51.745 47.523 50.791 50.383 C 48.749 56.102 44.255 68.494 44.255 68.63 C 43.847 69.855 44.391 71.353 45.481 71.898 L 45.481 75.711 C 42.757 75.711 41.123 77.617 41.123 79.796 L 41.123 85.106 C 41.123 85.651 41.532 86.196 42.213 86.196 L 51.472 86.196 C 52.017 86.196 52.562 85.787 52.562 85.106 L 52.562 79.796 C 52.562 77.753 51.064 75.711 48.204 75.711 L 48.204 71.898 C 48.749 71.626 49.157 71.081 49.43 70.4 C 49.43 70.264 52.698 61.413 54.877 55.149 C 54.74 56.374 51.2 74.349 51.2 74.349 C 52.562 75.03 53.515 76.119 54.06 77.481 L 54.604 77.481 L 54.604 97.498 C 54.604 99.268 56.102 100.766 57.872 100.766 C 59.643 100.766 61.14 99.268 61.14 97.498 L 61.14 77.481 L 62.502 77.481 L 62.502 97.498 C 62.502 99.268 64 100.766 65.77 100.766 C 67.54 100.766 69.038 99.268 69.038 97.498 L 69.038 77.481 L 71.081 77.481 C 72.034 77.481 72.715 76.664 72.579 75.711 C 72.306 74.213 68.766 56.374 68.63 55.149 C 69.311 56.919 69.991 58.826 69.991 58.962 C 70.536 60.323 72.034 61.14 73.532 60.596 L 80.749 58.145 L 80.749 86.332 C 78.434 86.877 76.8 89.055 76.8 91.506 L 76.8 91.915 L 87.557 91.915 L 87.557 91.506 C 87.557 89.328 85.923 87.149 83.608 86.604 Z"
        fill="#ffffff"/>
    <path
        id="path_29"
        d="M 76.8 94.366 L 76.8 99.132 C 76.8 100.221 79.251 101.038 82.111 101.038 C 85.106 101.038 87.421 100.221 87.421 99.132 L 87.421 94.366 L 76.8 94.366 Z"
        fill="#ffffff"/>
    <path
        id="path_30"
        d="M 67.54 37.311 C 67.54 40.442 64.953 43.03 61.821 43.03 C 58.689 43.03 56.102 40.442 56.102 37.311 C 56.102 34.179 58.689 31.591 61.821 31.591 C 64.953 31.591 67.54 34.042 67.54 37.311 Z"
        fill="#ffffff"/>
    <path
        id="path_31"
        d="M 57.464 44.8 C 58.009 46.162 59.37 50.111 59.915 51.608 L 63.591 51.608 C 64.136 50.111 65.498 46.162 66.043 44.8 L 57.464 44.8 Z"
        fill="#ffffff"/>
    <path
        id="path_32"
        d="M 64 0 C 47.033 0 30.743 6.747 18.745 18.745 C 6.747 30.743 0 47.033 0 64 C 0 80.967 6.747 97.257 18.745 109.255 C 30.743 121.253 47.033 128 64 128 C 80.967 128 97.257 121.253 109.255 109.255 C 121.253 97.257 128 80.967 128 64 C 128 47.033 121.253 30.743 109.255 18.745 C 97.257 6.747 80.967 0 64 0 Z"
        fill="#e5008c"
        stroke-width="1"/>
    <path
        id="path_1_4"
        d="M 79.2 44.1 C 78 44.5 77 45.2 76.1 46.5 C 77.2 49.6 79.3 55.7 80.5 58.9 C 81.1 55 81.6 50.8 81.6 50.8 C 81.6 50.8 80.2 46.8 79.2 44.1 Z M 85.5 31.1 C 84.042 31.1 82.642 31.68 81.611 32.711 C 80.58 33.742 80 35.142 80 36.6 C 80 38.058 80.58 39.458 81.611 40.489 C 82.642 41.52 84.042 42.1 85.5 42.1 C 86.958 42.1 88.358 41.52 89.389 40.489 C 90.42 39.458 91 38.058 91 36.6 C 91 35.142 90.42 33.742 89.389 32.711 C 88.358 31.68 86.958 31.1 85.5 31.1 Z M 101.8 65.4 C 101.8 65.3 96.9 51.4 96.2 49.3 C 95.2 46.4 93.7 44.7 91.7 44.2 C 90.6 47.3 89.5 50.7 89.5 50.7 C 89.5 50.7 90.9 59.7 92.1 67.8 C 92.2 68.5 91.6 69.3 90.9 69.3 L 80.4 69.3 C 80 69.3 79.5 69.1 79.3 68.7 C 78.3 69.2 77.2 69.3 76.1 69.1 L 75.6 71.5 C 75.8 72.5 75.7 73.5 75.1 74.4 C 75.2 75.1 75.8 75.5 76.5 75.5 L 78.5 75.5 L 78.5 94.6 C 78.5 96.3 79.9 97.7 81.6 97.7 C 83.3 97.7 84.7 96.3 84.7 94.6 L 84.7 75.4 L 86.1 75.4 L 86.1 94.5 C 86.1 96.2 87.5 97.6 89.2 97.6 C 90.9 97.6 92.3 96.2 92.3 94.5 L 92.3 75.4 L 94.3 75.4 C 95.2 75.4 95.9 74.5 95.8 73.7 C 91.8 52.8 92.2 55.2 92.1 54.1 C 93.7 58.8 96.6 66.8 96.7 67.3 C 97.2 68.7 98.7 69.4 100.1 68.9 C 101.6 68.2 102.3 66.7 101.8 65.4 Z M 81.4 43.9 C 82.5 47.1 81.9 45.5 83.6 50.4 L 87.1 50.4 C 87.8 48.2 88.6 46.2 89.3 43.9 L 81.4 43.9 Z M 38.5 31.1 C 37.042 31.1 35.642 31.68 34.611 32.711 C 33.58 33.742 33 35.142 33 36.6 C 33 38.058 33.58 39.458 34.611 40.489 C 35.642 41.52 37.042 42.1 38.5 42.1 C 39.958 42.1 41.358 41.52 42.389 40.489 C 43.42 39.458 44 38.058 44 36.6 C 44 35.142 43.42 33.742 42.389 32.711 C 41.358 31.68 39.958 31.1 38.5 31.1 Z M 48.6 71.2 L 48.1 68.8 C 47.7 69 47.4 69 47 69 C 46.3 69 45.5 68.9 44.9 68.5 C 44.7 68.9 44.3 69.1 43.8 69.1 L 33.3 69.1 C 32.6 69.1 31.9 68.4 32.1 67.6 C 34.6 53.4 34 57 34.7 50.7 C 33.2 46.6 33.2 46.3 32.3 44.1 C 30.3 44.7 28.8 46.3 27.8 49.2 C 27.1 51.4 22.3 65.2 22.2 65.3 C 21.7 66.7 22.4 68.2 23.8 68.7 C 25.2 69.2 26.7 68.5 27.2 67.1 C 27.3 66.6 30.3 58.4 31.9 53.7 C 31.8 55.1 32.3 52.5 28.2 73.6 C 28 74.5 28.7 75.3 29.6 75.3 L 31.6 75.3 L 31.6 94.4 C 31.6 96.1 33 97.5 34.7 97.5 C 36.4 97.5 37.8 96.1 37.8 94.4 L 37.8 75.4 L 39.2 75.4 L 39.2 94.5 C 39.2 96.2 40.6 97.6 42.3 97.6 C 44 97.6 45.4 96.2 45.4 94.5 L 45.4 75.4 L 47.4 75.4 C 48 75.4 48.6 74.9 48.8 74.3 C 48.4 73.2 48.4 72.2 48.6 71.2 Z M 44.6 44 C 42.7 49.5 43 48.6 42.4 50.5 C 43.1 56.6 42.9 54.9 43.5 58.6 C 44.6 55.6 46.7 49.4 47.7 46.2 C 47 45.1 45.9 44.4 44.6 44 Z M 34.4 43.9 C 35.5 47.1 34.9 45.5 36.6 50.4 L 40.1 50.4 C 40.8 48.2 41.6 46.2 42.3 43.9 L 34.4 43.9 Z"
        fill="#ffffff"
        stroke-width="1"/>
    <path
        id="path_2_3"
        d="M 79.6 63 C 78.7 60.4 74.5 48.3 73.6 45.6 L 73.6 45.5 C 72.7 43 71.2 40.6 68.7 39.9 C 67.6 43 66.2 46.9 66.2 46.9 C 66.2 46.9 66.4 49.9 69.1 65.3 C 69.2 66.2 68.6 66.9 67.7 66.9 L 56.5 66.9 C 55.6 66.9 55 66.2 55.1 65.3 C 57.7 49.8 58 47 58 47 C 58 47 56.6 43.3 55.5 39.8 C 53.4 40.4 51.6 42.3 50.6 45.4 C 49.9 47.6 45.4 60.4 44.6 62.5 C 43.9 64.5 44.8 65.9 46.2 66.4 C 47.7 66.9 49.3 66.2 49.8 64.7 C 49.9 64.2 53 55.2 54.9 50.2 L 50.7 71.9 C 50.5 72.9 51.3 73.8 52.2 73.8 L 54.3 73.8 L 54.3 94.5 C 54.3 96.4 55.8 97.9 57.7 97.9 C 59.6 97.9 61.1 96.4 61.1 94.5 L 61.1 73.7 L 62.6 73.7 L 62.6 94.4 C 62.6 96.3 64.1 97.8 66 97.8 C 67.9 97.8 69.4 96.3 69.4 94.4 L 69.4 73.7 L 71.5 73.7 C 72.5 73.7 73.2 72.8 73 71.8 C 68.6 49.3 69.1 51.8 69 50.6 C 70.7 55.6 73.9 64.3 74 64.8 C 74.6 66.5 76.6 67.2 78.1 66.3 C 79.5 65.7 80.1 64.4 79.6 63 Z"
        fill="#ffffff"
        stroke-width="1"/>
    <path
        id="path_3_3"
        d="M 57.6 39.8 C 58 40.7 59.7 45.8 60.1 46.8 L 64 46.8 C 64.9 44.4 65.6 42.3 66.5 39.8 L 57.6 39.8 Z M 62 26.1 C 58.8 26.1 56.1 28.7 56.1 32 C 56.1 35.3 58.7 37.9 62 37.9 C 65.3 37.9 67.9 35.3 67.9 32 C 67.9 28.7 65.2 26.1 62 26.1 Z"
        fill="#ffffff"
        stroke-width="1"/>
    <path
        id="path_33"
        d="M 64 0 C 47.033 0 30.743 6.747 18.745 18.745 C 6.747 30.743 0 47.033 0 64 C 0 80.967 6.747 97.257 18.745 109.255 C 30.743 121.253 47.033 128 64 128 C 80.967 128 97.257 121.253 109.255 109.255 C 121.253 97.257 128 80.967 128 64 C 128 47.033 121.253 30.743 109.255 18.745 C 97.257 6.747 80.967 0 64 0 Z"
        fill="#e73458"
        stroke-width="1"/>
    <g id="group_7">
        <path
            id="path_1_5"
            d="M 45.4 19.2 C 43.542 19.2 41.731 19.788 40.227 20.881 C 38.724 21.973 37.605 23.514 37.031 25.281 C 36.457 27.048 36.457 28.952 37.031 30.719 C 37.605 32.486 38.724 34.027 40.227 35.119 C 41.731 36.212 43.542 36.8 45.4 36.8 C 47.258 36.8 49.069 36.212 50.573 35.119 C 52.076 34.027 53.195 32.486 53.769 30.719 C 54.343 28.952 54.343 27.048 53.769 25.281 C 53.195 23.514 52.076 21.973 50.573 20.881 C 49.069 19.788 47.258 19.2 45.4 19.2 Z M 74.2 19.2 C 72.342 19.2 70.531 19.788 69.027 20.881 C 67.524 21.973 66.405 23.514 65.831 25.281 C 65.257 27.048 65.257 28.952 65.831 30.719 C 66.405 32.486 67.524 34.027 69.027 35.119 C 70.531 36.212 72.342 36.8 74.2 36.8 C 76.058 36.8 77.869 36.212 79.373 35.119 C 80.876 34.027 81.995 32.486 82.569 30.719 C 83.143 28.952 83.143 27.048 82.569 25.281 C 81.995 23.514 80.876 21.973 79.373 20.881 C 77.869 19.788 76.058 19.2 74.2 19.2 Z M 38.3 69.3 L 32.1 68.3 C 29.3 67.8 27.5 65.2 27.9 62.4 L 31.6 40.1 C 32.1 37.3 34.7 35.5 37.5 35.9 L 43.7 36.9 C 46.5 37.4 48.3 40 47.9 42.8 L 44.2 65.1 C 43.6 67.9 40.9 69.8 38.3 69.3 Z"
            fill="#ffffff"
            stroke-width="1"/>
        <path
            id="path_2_4"
            d="M 88.4 48.8 C 89 50.8 92.4 65.5 92.4 65.5 C 95.5 66.6 95.3 68.8 95.3 68.8 L 102.1 68.8 L 102.1 88.8 L 75.6 88.8 L 75.6 69.4 L 81.8 69.4 C 82.3 66.7 85 65.7 85 65.7 C 83.3 55.1 80.3 49.8 80.3 49.8 L 79.5 49.5 C 84.2 63.9 83.5 65.3 83.5 65.3 L 81.2 68.1 L 78.1 68.1 C 74.5 66.4 73.8 55.9 73.8 55.9 C 73.8 55.9 74.1 59.2 64.5 60 C 54.9 60.8 56.6 54.8 56.6 54.8 C 56.5 53.5 58 52.9 58 52.9 L 65.1 52.9 C 71.3 52 70.8 45.6 70.8 45.6 C 71.1 39.2 75.3 35.9 80.6 36 C 86 36.1 87.2 44.8 87.2 44.8 C 87.3 46 88.4 48.8 88.4 48.8 Z M 84.8 69.3 L 87.7 69.3 C 87.7 69.3 85.8 66.1 84.8 69.3 Z M 89.8 69.3 L 92.6 69.3 C 92.6 69.3 91.8 66.1 89.8 69.3 Z M 79.7 89.6 L 79.7 97.5 C 79.7 97.5 80 100.8 84.7 100.8 C 89.4 100.8 89.3 96.8 89.3 96.8 L 89.3 89.5 L 79.7 89.5 Z M 37 100.8 L 33.4 100.8 C 31.9 100.8 30.6 99.5 30.6 98 L 30.6 66.8 C 30.6 65.3 31.9 64 33.4 64 L 37 64 C 38.5 64 39.8 65.3 39.8 66.8 L 39.8 98 C 39.8 99.5 38.5 100.8 37 100.8 Z"
            fill="#ffffff"
            stroke-width="1"/>
        <path
            id="path_3_4"
            d="M 46.9 40.1 C 46.9 40.1 48.9 42.1 48.8 47.1 C 48.8 47.1 48.8 54.4 56.7 54.9 C 56.7 54.9 66.9 58.5 61 62.5 C 61 62.5 47.9 62.6 45.3 56.4 L 46.9 40.1 Z"
            fill="#ffffff"
            stroke-width="1"/>
    </g>
    <path
        id="path_34"
        d="M 127.515 64.093 C 127.515 29.024 99.086 0.595 64.018 0.595 C 28.949 0.595 0.521 29.024 0.521 64.093 C 0.521 99.162 28.949 127.592 64.018 127.592 C 99.086 127.592 127.515 99.162 127.515 64.093"
        fill="#e73458"/>
    <path
        id="path_35"
        d="M 52.107 57.13 L 114.318 57.13 L 114.318 69.703 L 52.107 69.703 L 52.107 57.13 Z"
        fill="#ffffff"
        fill-rule="evenodd"/>
    <path
        id="path_36"
        d="M 44.464 79.785 C 44.276 78.729 44.178 77.767 43.928 76.85 C 42.699 72.412 38.546 69.53 33.935 69.882 C 29.136 70.249 25.547 73.57 24.877 78.196 C 24.803 78.746 25.245 79.664 24.088 79.705 C 22.808 79.752 21.879 79.223 21.671 78.184 C 21.546 77.576 21.533 76.931 21.527 76.308 C 21.481 72.364 21.441 68.42 21.457 64.476 C 21.46 63.746 21.635 62.974 21.893 62.28 C 23.388 58.33 24.969 54.406 26.434 50.437 C 27.013 48.861 27.896 48.187 29.658 48.108 C 35.018 47.866 40.368 47.401 45.723 47.026 C 46.35 46.985 46.978 46.946 47.744 46.895 L 47.744 71.837 C 60.889 71.837 74.65 71.787 87.737 71.787 C 84.304 73.157 83.48 77.286 83.313 79.785 L 44.464 79.785 Z M 40.046 51.006 C 36.397 51.245 34.037 51.429 30.496 51.762 C 29.996 51.814 29.365 52.435 29.131 52.954 C 28.512 54.277 28.089 55.688 27.583 57.056 C 27.02 58.591 26.4 60.101 25.886 61.646 C 25.483 62.86 25.836 63.276 27.11 63.256 C 27.357 63.256 27.616 63.243 27.857 63.209 C 30.69 62.884 33.518 62.556 36.344 62.219 C 37.945 62.027 38.355 61.809 40.047 61.589 L 40.047 51.006 Z"
        fill="#ffffff"
        fill-rule="evenodd"/>
    <path
        id="path_37"
        d="M 106.582 71.794 C 103.916 71.791 101.271 71.788 98.649 71.788 C 102.084 73.159 102.906 77.288 103.073 79.786 L 106.58 79.786 L 106.58 71.794 Z"
        fill="#ffffff"
        fill-rule="evenodd"/>
    <path
        id="path_38"
        d="M 101.033 79.901 C 101.033 84.26 97.5 87.794 93.14 87.794 C 88.781 87.794 85.248 84.259 85.248 79.901 C 85.248 75.543 88.781 72.01 93.14 72.01 C 97.5 72.01 101.033 75.541 101.033 79.901"
        fill="#ffffff"
        fill-rule="evenodd"/>
    <path
        id="path_39"
        d="M 97.306 79.715 C 97.306 82.015 95.441 83.884 93.14 83.884 C 90.839 83.884 88.972 82.016 88.972 79.715 C 88.972 77.413 90.838 75.55 93.14 75.55 C 95.441 75.55 97.306 77.411 97.306 79.715"
        fill="#ffffff"
        fill-rule="evenodd"/>
    <path
        id="path_40"
        d="M 42.242 80.855 C 42.242 85.215 38.707 88.746 34.349 88.746 C 29.99 88.746 26.457 85.213 26.457 80.855 C 26.457 76.497 29.99 72.965 34.349 72.965 C 38.707 72.965 42.242 76.497 42.242 80.855"
        fill="#ffffff"
        fill-rule="evenodd"/>
    <path
        id="path_41"
        d="M 38.514 80.67 C 38.514 82.97 36.65 84.835 34.349 84.835 C 32.048 84.835 30.182 82.971 30.182 80.67 C 30.182 78.368 32.048 76.505 34.349 76.505 C 36.65 76.506 38.514 78.368 38.514 80.67"
        fill="#ffffff"
        fill-rule="evenodd"/>
    <path
        id="path_42"
        d="M 64 0 C 47.033 0 30.743 6.747 18.745 18.745 C 6.747 30.743 0 47.033 0 64 C 0 80.967 6.747 97.257 18.745 109.255 C 30.743 121.253 47.033 128 64 128 C 80.967 128 97.257 121.253 109.255 109.255 C 121.253 97.257 128 80.967 128 64 C 128 47.033 121.253 30.743 109.255 18.745 C 97.257 6.747 80.967 0 64 0 Z"
        fill="#e73458"
        stroke-width="1"/>
    <g id="group_8">
        <path
            id="path_1_6"
            d="M 41.9 104 C 49.6 104 55.8 97.8 55.8 90.1 C 55.8 86.8 54.7 83.7 52.6 81.2 L 55.5 78.3 L 53.7 76.5 L 50.8 79.4 C 44.9 74.5 36.1 75.3 31.2 81.2 C 26.3 87.1 27.1 95.9 33 100.8 C 35.5 102.9 38.7 104 41.9 104 Z M 41.9 78.7 C 48.2 78.7 53.3 83.8 53.3 90.1 C 53.3 96.4 48.2 101.5 41.9 101.5 C 35.6 101.5 30.5 96.4 30.5 90.1 C 30.5 83.8 35.6 78.7 41.9 78.7 Z M 41.9 55.9 C 45.2 55.9 48.3 54.8 50.8 52.7 L 53.7 55.6 L 55.5 53.8 L 52.6 50.9 C 57.5 45 56.7 36.2 50.8 31.3 C 44.9 26.4 36.1 27.1 31.2 33 C 26.3 38.9 27.1 47.7 33 52.6 C 35.5 54.7 38.7 55.9 41.9 55.9 Z M 41.9 30.5 C 48.2 30.5 53.3 35.6 53.3 41.9 C 53.3 48.2 48.2 53.3 41.9 53.3 C 35.6 53.3 30.5 48.2 30.5 41.9 C 30.5 35.6 35.6 30.5 41.9 30.5 Z M 79.9 66 C 79.9 58.3 73.7 52.1 66 52.1 C 58.3 52.1 52.1 58.3 52.1 66 C 52.1 73.2 57.6 79.3 64.8 79.9 C 65.2 79.9 65.6 80 66 80 C 66.4 80 66.8 80 67.2 79.9 C 74.4 79.2 79.9 73.2 79.9 66 Z M 72.3 75.2 C 70.8 76.4 68.9 77.2 66.9 77.4 L 65.1 77.4 C 63.1 77.2 61.3 76.5 59.7 75.2 L 59.7 75.1 C 60.5 72.9 61.8 70.8 63.4 69.2 L 64.2 68.4 C 64.7 67.9 64.7 67.1 64.2 66.6 C 63.2 65.6 63.2 64 64.2 63 C 65.2 62 66.8 62 67.8 63 C 68.8 64 68.8 65.6 67.8 66.6 C 67.3 67.1 67.3 67.9 67.8 68.4 L 68.6 69.2 C 70.3 70.8 71.6 72.8 72.3 75.2 Z M 70.4 67.3 C 71.8 64.9 71 61.8 68.6 60.3 C 66.2 58.9 63.1 59.7 61.7 62.1 C 60.8 63.7 60.8 65.7 61.7 67.2 C 59.9 69 58.5 71.1 57.6 73.5 C 53.4 68.8 53.7 61.6 58.4 57.4 C 63.1 53.2 70.3 53.5 74.5 58.2 C 78.4 62.5 78.4 69.1 74.5 73.5 C 73.6 71.3 72.2 69.1 70.4 67.3 Z"
            fill="#ffffff"
            stroke-width="1"/>
        <path
            id="path_2_5"
            d="M 41.9 48.3 C 45.4 48.3 48.2 45.5 48.2 42 C 48.2 38.5 45.4 35.7 41.9 35.7 C 38.4 35.7 35.6 38.5 35.6 42 C 35.6 45.4 38.4 48.3 41.9 48.3 Z M 41.9 38.1 C 44 38.1 45.7 39.8 45.7 41.9 C 45.7 44 44 45.7 41.9 45.7 C 39.8 45.7 38.1 44 38.1 41.9 C 38.1 39.8 39.8 38.1 41.9 38.1 Z M 36.9 96.4 L 47 96.4 C 47.7 96.4 48.3 95.8 48.3 95.1 L 48.3 85 C 48.3 84.3 47.7 83.7 47 83.7 L 36.9 83.7 C 36.2 83.7 35.6 84.3 35.6 85 L 35.6 95.1 C 35.6 95.8 36.2 96.4 36.9 96.4 Z M 38.1 86.3 L 45.7 86.3 L 45.7 93.9 L 38.1 93.9 L 38.1 86.3 Z M 91.2 36.2 C 90.8 35.6 90 35.4 89.4 35.8 C 89.3 35.9 89.1 36 89 36.2 L 83.9 45.1 C 83.6 45.7 83.8 46.5 84.4 46.8 C 84.6 46.9 84.8 47 85 47 L 95.1 47 C 95.8 47 96.4 46.4 96.4 45.7 C 96.4 45.5 96.3 45.3 96.2 45.1 L 91.2 36.2 Z M 87.2 44.5 L 90.1 39.5 L 93 44.5 L 87.2 44.5 Z M 90.1 104 C 97.8 104 104 97.8 104 90.1 C 104 82.4 97.8 76.2 90.1 76.2 C 86.8 76.2 83.7 77.3 81.2 79.4 L 78.3 76.5 L 76.5 78.3 L 79.4 81.2 C 74.5 87.1 75.3 95.9 81.2 100.8 C 83.6 102.9 86.8 104 90.1 104 Z M 90.1 78.7 C 96.4 78.7 101.5 83.8 101.5 90.1 C 101.5 96.4 96.4 101.5 90.1 101.5 C 83.8 101.5 78.7 96.4 78.7 90.1 C 78.7 83.8 83.8 78.7 90.1 78.7 Z"
            fill="#ffffff"
            stroke-width="1"/>
        <path
            id="path_3_5"
            d="M 89.3 97.4 C 89.8 97.7 90.4 97.7 90.8 97.4 L 95.9 93.6 C 96.2 93.4 96.4 93 96.4 92.6 L 96.4 87.5 C 96.4 87.1 96.2 86.7 95.9 86.5 L 90.8 82.7 C 90.3 82.4 89.7 82.4 89.3 82.7 L 84.2 86.5 C 83.9 86.7 83.7 87.1 83.7 87.5 L 83.7 92.6 C 83.7 93 83.9 93.4 84.2 93.6 L 89.3 97.4 Z M 86.3 88.2 L 90.1 85.4 L 93.9 88.2 L 93.9 92 L 90.1 94.8 L 86.3 92 L 86.3 88.2 Z M 38.1 59.7 L 40.6 59.7 L 40.6 62.2 L 38.1 62.2 Z M 38.1 64.7 L 40.6 64.7 L 40.6 67.2 L 38.1 67.2 Z M 38.1 69.8 L 40.6 69.8 L 40.6 72.3 L 38.1 72.3 Z M 95.1 59.7 L 97.6 59.7 L 97.6 62.2 L 95.1 62.2 Z M 95.1 64.7 L 97.6 64.7 L 97.6 67.2 L 95.1 67.2 Z M 95.1 69.8 L 97.6 69.8 L 97.6 72.3 L 95.1 72.3 Z M 59.7 34.3 L 62.2 34.3 L 62.2 36.8 L 59.7 36.8 Z M 64.7 34.3 L 67.2 34.3 L 67.2 36.8 L 64.7 36.8 Z M 69.8 34.3 L 72.3 34.3 L 72.3 36.8 L 69.8 36.8 Z M 59.7 95.1 L 62.2 95.1 L 62.2 97.6 L 59.7 97.6 Z M 64.7 95.1 L 67.2 95.1 L 67.2 97.6 L 64.7 97.6 Z M 69.8 95.1 L 72.3 95.1 L 72.3 97.6 L 69.8 97.6 Z M 90.1 28 C 82.4 28 76.2 34.2 76.2 41.9 C 76.2 44.5 76.9 47 78.3 49.2 L 77.5 54.4 C 77.4 55.1 77.9 55.7 78.6 55.8 L 79.1 55.8 L 84.6 54.6 C 86.4 55.4 88.3 55.8 90.2 55.8 C 97.9 55.8 104.1 49.6 104.1 41.9 C 104.1 34.2 97.8 28 90.1 28 Z M 90.1 53.3 C 88.4 53.3 86.7 52.9 85.2 52.2 C 85 52.1 84.8 52.1 84.6 52.1 L 84.3 52.1 L 80.2 53 L 80.8 49.2 C 80.8 48.9 80.8 48.6 80.6 48.3 C 77.1 43 78.5 36 83.7 32.5 C 89 29 96 30.4 99.5 35.6 C 103 40.8 101.6 47.9 96.4 51.4 C 94.5 52.7 92.3 53.3 90.1 53.3 Z"
            fill="#ffffff"
            stroke-width="1"/>
    </g>
    <g
        id="group_11"
        transform="translate(-238.4 -766.4000000000001)">
        <g
            id="group_10"
            transform="translate(238.4 766.4000000000001)">
            <path
                id="path_43"
                d="M 128 64 C 128 80.967 121.253 97.257 109.255 109.255 C 97.257 121.253 80.967 128 64 128 C 47.033 128 30.743 121.253 18.745 109.255 C 6.747 97.257 0 80.967 0 64 C 0 47.033 6.747 30.743 18.745 18.745 C 30.743 6.747 47.033 0 64 0 C 80.967 0 97.257 6.747 109.255 18.745 C 121.253 30.743 128 47.033 128 64 Z"
                fill="#c6275f"/>
            <g
                id="group_9"
                transform="translate(36.800000000000004 59.2)">
                <path
                    id="path_44"
                    d="M 11.2 5.6 C 11.2 7.085 10.61 8.51 9.56 9.56 C 8.51 10.61 7.085 11.2 5.6 11.2 C 4.115 11.2 2.69 10.61 1.64 9.56 C 0.59 8.51 0 7.085 0 5.6 C 0 4.115 0.59 2.69 1.64 1.64 C 2.69 0.59 4.115 0 5.6 0 C 7.085 0 8.51 0.59 9.56 1.64 C 10.61 2.69 11.2 4.115 11.2 5.6 Z"
                    fill="none"
                    stroke="#ffffff"
                    stroke-width="2.2399999999999998"/>
                <path
                    id="path_45"
                    d="M 33.6 5.6 C 33.6 7.085 33.01 8.51 31.96 9.56 C 30.91 10.61 29.485 11.2 28 11.2 C 26.515 11.2 25.09 10.61 24.04 9.56 C 22.99 8.51 22.4 7.085 22.4 5.6 C 22.4 4.115 22.99 2.69 24.04 1.64 C 25.09 0.59 26.515 0 28 0 C 29.485 0 30.91 0.59 31.96 1.64 C 33.01 2.69 33.6 4.115 33.6 5.6 Z"
                    fill="none"
                    stroke="#ffffff"
                    stroke-width="2.2399999999999998"/>
                <path
                    id="path_46"
                    d="M 56 5.6 C 56 7.085 55.41 8.51 54.36 9.56 C 53.31 10.61 51.885 11.2 50.4 11.2 C 48.915 11.2 47.49 10.61 46.44 9.56 C 45.39 8.51 44.8 7.085 44.8 5.6 C 44.8 4.115 45.39 2.69 46.44 1.64 C 47.49 0.59 48.915 0 50.4 0 C 51.885 0 53.31 0.59 54.36 1.64 C 55.41 2.69 56 4.115 56 5.6 Z"
                    fill="none"
                    stroke="#ffffff"
                    stroke-width="2.2399999999999998"/>
            </g>
        </g>
    </g>
    <path
        id="path_47"
        d="M 64 0 C 47.033 0 30.743 6.747 18.745 18.745 C 6.747 30.743 0 47.033 0 64 C 0 80.967 6.747 97.257 18.745 109.255 C 30.743 121.253 47.033 128 64 128 C 80.967 128 97.257 121.253 109.255 109.255 C 121.253 97.257 128 80.967 128 64 C 128 47.033 121.253 30.743 109.255 18.745 C 97.257 6.747 80.967 0 64 0 Z"
        fill="#e73458"
        stroke-width="1"/>
    <g id="group_12">
        <path
            id="path_1_7"
            d="M 26.4 92.2 L 26.4 63.2 C 30.2 64.2 34 64.4 37.9 65 C 41.2 65.5 41.2 65.5 42 62.3 C 42 62.2 42.1 62.1 42.1 61.9 C 42.5 61.2 42.1 60.9 41.4 60.8 C 36.4 60.2 31.4 59.5 26.4 58.8 L 26.4 47.2 C 27.7 43.2 30.7 41.8 34.8 41.8 C 55.1 41.9 75.3 41.9 95.6 41.8 C 99.7 41.8 102.6 43.1 104 47.2 L 104 58.8 C 99 59.4 94 60.1 89 60.8 C 88.3 60.9 87.9 61 88.3 61.9 C 88.5 62.6 88.8 63.4 88.9 64.1 C 89 64.8 89.4 65.2 90.2 65.1 C 94.8 64.6 99.5 64.1 104 63.1 L 104 92.1 C 102.5 96 99.6 97.3 95.5 97.2 C 75.2 97.1 55 97.1 34.7 97.2 C 30.7 97.4 27.9 96 26.4 92.2 Z M 85.1 69.6 C 85.2 58.9 76.2 49.8 65.3 49.7 C 54.6 49.6 45.4 58.5 45.3 69.2 C 45.1 80.5 53.9 89.5 65 89.6 C 76.2 89.6 85 80.9 85.1 69.6 Z M 65.3 23.9 C 72.1 24.3 77.4 27.3 80.7 33.4 C 81.9 35.6 81.4 37.5 79.7 38.5 C 77.9 39.5 76 38.7 74.8 36.5 C 72.6 32.6 69.4 30.5 65.2 30.5 C 61 30.5 57.8 32.6 55.7 36.4 C 54.5 38.6 52.8 39.3 50.9 38.4 C 49 37.5 48.6 35.5 49.8 33.2 C 53.1 27.3 58.4 24.2 65.3 23.9 Z"
            fill="#ffffff"
            stroke-width="1"/>
        <path
            id="path_2_6"
            d="M 65.4 86.3 C 67 83.1 68.5 80.1 69.9 77 C 70.8 77.9 71 79 71.2 79.9 C 71.6 81.4 72.2 81.1 73.2 80.4 C 80.3 75.3 80.5 64.5 73.6 59.2 C 72.6 58.3 70.8 57.7 72 56 C 73.2 54.3 74.6 55.8 75.7 56.5 C 81.3 60.9 83.4 68.5 81.1 75.2 C 78.7 81.7 72.3 86.5 65.4 86.3 Z M 67.4 62.3 L 67.4 69.6 C 67.4 71.7 66.7 72.4 64.6 72.4 L 55.1 72.4 C 53.5 72.4 52.4 72 52.3 70.2 C 52.2 68.7 53.3 68 55.2 68 C 57.3 68 59.3 67.9 61.4 68 C 62.6 68 63 67.6 63 66.4 C 62.9 62.5 63 58.5 63 54.6 C 63 53.4 63.4 52.3 64.7 51.9 C 66.2 51.4 67.5 52.5 67.5 54.5 C 67.5 57.2 67.4 59.7 67.4 62.3 Z"
            fill="#ffffff"
            stroke-width="1"/>
    </g>
    <path
        id="path_48"
        d="M 64 0 C 47.033 0 30.743 6.747 18.745 18.745 C 6.747 30.743 0 47.033 0 64 C 0 80.967 6.747 97.257 18.745 109.255 C 30.743 121.253 47.033 128 64 128 C 80.967 128 97.257 121.253 109.255 109.255 C 121.253 97.257 128 80.967 128 64 C 128 47.033 121.253 30.743 109.255 18.745 C 97.257 6.747 80.967 0 64 0 Z"
        fill="#e73458"
        stroke-width="1"/>
    <g id="group_13">
        <path
            id="path_1_8"
            d="M 60.5 100.2 C 57.8 99.2 56.8 97.2 56.9 94.4 C 57 88.7 57 83 57 77.5 C 57 75.6 57.6 74.2 59.1 72.9 C 62.6 69.8 65.8 66.6 69.1 63.5 C 69.9 62.9 70.1 62.2 69.9 61.2 C 69.4 59.5 69.1 57.9 68.7 56.2 C 68.6 55.4 68.4 54.8 68.7 54 C 70 50.1 70.1 50 73.7 52.1 C 76.3 53.6 78.8 55.2 81.6 56.6 C 82.5 57.1 83 57.8 83.3 58.8 C 84.3 63.4 85.5 67.9 86.5 72.6 C 86.8 73.8 87.1 74.3 88.6 74 C 94.9 73 97.7 68.5 96.1 62.3 C 95.3 59.7 93.9 57.7 92.4 55.5 C 91.6 54.5 90.9 54.9 90.1 55 C 86.8 55.6 85.3 54.7 84.6 51.7 C 83.6 47.2 82.4 42.8 81.4 38.3 C 80.6 34.8 81.5 33.3 84.9 32.5 C 86.7 32 88.6 31.6 90.4 31.1 C 93.4 30.5 95 31.5 95.7 34.4 C 96.9 39 97.9 43.7 99 48.4 C 99.6 51.2 98.7 53 96 53.5 C 94.3 53.9 94.3 54.3 95.2 55.6 C 97 58.2 98.3 60.9 98.7 64.1 C 99.3 70.1 96.4 74.5 90.5 76.1 C 90.1 76.2 89.7 76.2 89.3 76.4 C 87.5 76.4 87.5 77.2 88.3 78.5 C 91.3 83 94.1 87.5 96.9 92 C 99.5 96 99.1 97.9 95.1 100.4 L 92.7 100.4 C 91.3 99.6 90.3 98.3 89.4 96.9 C 88 94.6 86.6 92.4 85.2 90.1 C 81.3 84.3 77.5 78.5 76.7 71.3 C 76.6 70 75.9 70.3 75.3 70.9 C 72.6 73.1 69.9 75.4 67.2 77.6 C 66.1 78 66 78.7 66 79.6 C 65.9 84.6 65.7 89.6 65.7 94.7 C 65.7 97.4 64.8 99.3 62.4 100.4 C 61.7 100.2 61.1 100.2 60.5 100.2 Z M 18.8 86.5 C 19.3 86 19.8 85.2 20.6 86 C 21 86.4 21.1 86.9 20.9 87.3 C 20.3 88.3 19.5 87.7 18.8 87.3 L 18.8 86.5 Z"
            fill="#ffffff"
            stroke-width="1"/>
        <path
            id="path_2_7"
            d="M 81.9 54.5 C 78.6 52.6 75.3 50.6 72.1 48.8 C 71.2 48.3 71.5 47.8 71.7 47.1 C 71.9 46.4 72.7 45.4 71.6 44.9 C 70.3 44.4 70.2 45.5 69.8 46.3 C 68.6 48.6 67.6 51.1 66.5 53.4 C 66.1 54.3 65.6 54.9 64.7 55.2 C 60.8 56.6 57.1 58.2 53.1 59.6 C 51.6 60.1 50 60 49.2 58.2 C 48.6 56.8 48.9 55.5 50.2 54.6 C 50.7 54.2 51.4 54.1 51.9 53.8 C 54.3 52.9 56.9 52 59.5 51.1 C 60.7 50.7 61.4 50.1 61.8 48.8 C 63.1 45.1 64.4 41.5 65.8 37.9 C 67.2 34.3 70.9 32.4 74 33.7 C 76.2 34.6 77.5 36.3 78 38.3 C 79.3 43.3 80.4 48.2 81.6 53.2 C 81.9 53.6 81.9 54 81.9 54.5 Z M 59.7 26.3 L 50.8 26.3 C 50 26.3 49.3 26.4 49.3 25.1 C 49.3 24.1 50.1 24.2 50.7 24.2 L 52.1 24.2 C 54.5 24.3 56.6 24.6 57.5 21.2 C 58.3 18.4 62 17.2 65.1 18 C 67.9 18.8 70 21.9 70 24.8 C 70 25.8 69.6 26.2 68.6 26.2 C 65.7 26.3 62.8 26.3 59.7 26.3 Z"
            fill="#ffffff"
            stroke-width="1"/>
        <path
            id="path_3_6"
            d="M 61.1 28.1 L 68.7 28.1 C 69.9 28.1 70.1 28.6 69.9 29.6 C 69.4 31.7 68.1 33.2 66.2 33.8 C 64.7 34.3 64.5 35.1 64.5 36.4 C 64.5 40.3 64.1 40.6 60.4 39.4 C 55.6 37.9 53.2 34.3 52.2 29.5 C 51.9 28.3 52.5 28.1 53.5 28.1 L 61.1 28.1 Z M 58.5 30 C 57.6 30 56.6 30.1 55.7 30 C 54.4 29.9 54.3 30.5 54.7 31.4 C 55.6 33.6 56.9 35.4 58.9 36.5 C 59.9 37.1 61.2 38 62.2 37.5 C 63.2 37 62.5 35.6 62.6 34.4 L 62.6 34 C 62.8 30 62.8 30 58.5 30 Z M 48.9 60.4 C 48.8 60.8 48.5 61.2 48.3 61.6 C 43.8 68 39.2 74.6 34.5 81 C 33.9 81.8 33.2 82.4 32.3 81.8 C 31.5 81.2 31.8 80.4 32.3 79.6 C 36.9 73 41.6 66.5 46.2 59.9 C 46.6 59.3 47.1 58.9 47.9 59.1 C 48.5 59.4 48.7 59.8 48.9 60.4 Z M 90.1 28 C 90.2 28.9 89.5 29 88.9 29.2 C 87.6 29.6 86.3 29.8 85.2 30.1 C 83.3 30.5 82 29.3 82.2 27.4 C 82.3 26.6 82.8 26.6 83.4 26.5 C 84.6 26.1 85.8 25.9 87 25.6 C 89.1 25 90.1 25.7 90.1 28 Z M 29.2 87.9 C 29.2 88.4 28.9 88.9 28.3 89.1 C 27.5 89.2 27.1 88.7 27 88.1 C 27 87.6 27.4 87.1 28 87.1 C 28.8 86.9 29.2 87.2 29.2 87.9 Z M 31.9 96.8 C 31.3 96.8 30.9 96.4 30.7 95.9 C 30.7 95.1 31.1 94.7 31.9 94.7 C 32.5 94.7 32.9 95.1 32.9 95.7 C 32.8 96.4 32.5 96.8 31.9 96.8 Z M 32.8 91.8 C 32.8 92.4 32.4 92.8 31.8 93 C 31.2 93.2 30.8 92.7 30.6 92.1 C 30.6 91.3 30.9 90.8 31.6 90.8 C 32.1 90.8 32.7 91.2 32.8 91.8 Z M 27 90.9 C 27 91.7 26.7 92.2 26.1 92.2 C 25.3 92.3 24.9 91.9 24.9 91.2 C 24.9 90.6 25.3 90.2 25.9 90.2 C 26.5 90.1 26.9 90.5 27 90.9 Z M 31.2 85 C 30.6 85 30.2 84.7 30.2 84 C 30.2 83.4 30.5 82.8 31.1 82.8 C 31.7 82.8 32.3 83.2 32.3 84 C 32.3 84.7 31.8 85 31.2 85 Z M 32.4 87.9 C 32.4 88.5 32.1 88.9 31.5 88.9 C 30.7 88.9 30.3 88.5 30.3 87.7 C 30.3 87.1 30.7 86.8 31.3 86.7 C 32 86.9 32.4 87.3 32.4 87.9 Z M 24.9 85.8 C 24.8 86.4 24.5 87 23.9 87 C 23.1 87 22.7 86.5 22.7 85.8 C 22.7 85.1 23.1 84.9 23.7 84.9 C 24.4 84.9 24.7 85.2 24.9 85.8 Z M 27.4 83.7 C 28 83.7 28.4 84 28.6 84.6 C 28.7 85.4 28.2 85.8 27.6 85.8 C 27 85.8 26.6 85.5 26.6 84.8 C 26.5 84.2 26.9 83.8 27.4 83.7 Z M 23.9 93.5 C 24.3 93.5 24.8 93.8 24.8 94.4 C 24.8 95 24.4 95.6 23.6 95.6 C 23 95.6 22.6 95.1 22.6 94.6 C 22.6 93.9 23 93.5 23.9 93.5 Z"
            fill="#ffffff"
            stroke-width="1"/>
    </g>
    <path
        id="path_49"
        d="M 64 0 C 47.032 0 30.742 6.747 18.746 18.746 C 6.747 30.742 0 47.032 0 64 C 0 80.968 6.747 97.258 18.746 109.254 C 30.742 121.253 47.032 128 64 128 C 80.968 128 97.258 121.253 109.254 109.254 C 121.253 97.258 128 80.968 128 64 C 128 47.032 121.253 30.742 109.254 18.746 C 97.258 6.747 80.968 0 64 0 Z"
        fill="#e5008c"
        stroke-width="1"/>
    <path
        id="path_1_9"
        d="M 98.56 58.56 L 88.96 58.56 L 88.96 56.16 L 97.28 56.16 C 97.92 56.16 98.4 55.68 98.4 55.04 L 98.4 41.92 C 98.4 41.28 97.92 40.8 97.28 40.8 L 78.24 40.8 C 77.6 40.8 77.12 41.28 77.12 41.92 L 77.12 55.04 C 77.12 55.68 77.6 56.16 78.24 56.16 L 86.56 56.16 L 86.56 58.56 L 74.56 58.56 C 74.24 55.36 72.64 52.48 69.92 50.72 L 69.92 37.12 C 69.92 31.2 65.12 26.4 59.2 26.4 C 53.28 26.4 48.48 31.2 48.48 37.12 L 48.48 50.72 C 45.76 52.48 44 55.36 43.84 58.56 L 41.44 58.56 L 41.44 56.16 C 41.44 55.52 40.96 55.04 40.32 55.04 L 40.16 55.04 L 40.16 54.4 C 40.16 52.32 38.72 50.72 36.8 50.24 C 36.8 49.6 36.32 49.12 35.68 49.12 C 35.04 49.12 34.56 49.6 34.56 50.24 C 32.64 50.56 31.2 52.32 31.2 54.4 L 31.2 55.04 L 31.04 55.04 C 30.4 55.04 29.92 55.52 29.92 56.16 L 29.92 58.56 C 29.28 58.56 28.8 59.04 28.8 59.68 L 28.8 64.48 C 28.8 65.12 29.28 65.6 29.92 65.6 L 31.04 65.6 L 31.04 96.64 C 31.04 97.28 31.52 97.76 32.16 97.76 L 96.48 97.76 C 97.12 97.76 97.6 97.28 97.6 96.64 L 97.6 65.6 L 98.72 65.6 C 99.36 65.6 99.84 65.12 99.84 64.48 L 99.84 59.68 C 99.68 59.04 99.2 58.56 98.56 58.56 Z M 79.52 53.76 L 79.52 43.04 L 96.16 43.04 L 96.16 53.76 L 79.52 53.76 Z M 68.48 52.48 C 70.72 53.76 72.16 56 72.32 58.56 L 60.48 58.56 L 60.48 55.04 C 61.44 54.72 62.4 54.24 63.04 53.44 L 64.64 51.52 C 65.76 51.52 67.04 51.84 68.16 52.32 C 68.16 52.32 68.32 52.48 68.48 52.48 Z M 50.88 37.12 C 50.88 32.48 54.56 28.8 59.2 28.8 C 63.84 28.8 67.52 32.48 67.52 37.12 L 67.52 49.6 C 66.4 49.28 65.12 49.12 64 49.12 L 63.84 49.12 L 63.68 49.12 C 63.68 49.12 63.52 49.12 63.52 49.28 L 63.36 49.44 L 61.44 51.84 C 60.48 52.8 59.04 52.96 57.92 52.16 L 57.6 51.84 L 55.68 49.44 L 55.52 49.28 L 55.36 49.12 L 54.88 49.12 C 53.6 49.12 52.48 49.28 51.36 49.6 L 50.88 37.12 Z M 50.08 52.48 C 50.24 52.48 50.4 52.32 50.56 52.32 C 51.68 51.84 52.8 51.52 54.08 51.52 L 55.68 53.44 C 56.32 54.24 57.28 54.88 58.24 55.04 L 58.24 58.56 L 46.4 58.56 C 46.4 56 47.84 53.76 50.08 52.48 Z M 33.12 54.4 C 33.12 53.44 33.92 52.64 34.88 52.64 L 35.68 52.64 C 36.64 52.64 37.44 53.44 37.44 54.4 L 37.44 55.04 L 32.96 55.04 L 32.96 54.4 Z M 31.84 57.28 L 39.04 57.28 L 39.04 58.4 L 31.84 58.4 L 31.84 57.28 Z M 95.04 95.52 L 33.12 95.52 L 33.12 65.76 L 95.04 65.76 L 95.04 95.52 Z M 97.28 63.36 L 30.56 63.36 L 30.56 60.96 L 97.28 60.96 L 97.28 63.36 Z"
        fill="#ffffff"
        stroke-width="1"/>
    <path
        id="path_2_8"
        d="M 59.2 49.28 C 63.2 49.28 66.4 46.08 66.4 42.08 L 66.4 37.12 C 66.4 36.48 65.92 36 65.28 36 C 63.2 36 59.84 35.52 59.2 34.24 C 59.04 33.76 58.56 33.6 58.08 33.6 C 57.6 33.6 57.12 33.92 56.96 34.4 C 56.48 36 55.04 37.12 53.28 37.12 C 52.64 37.12 52.16 37.6 52.16 38.24 L 52.16 42.08 C 52.16 46.08 55.36 49.28 59.2 49.28 Z M 54.4 39.36 C 56 39.04 57.44 38.08 58.24 36.64 C 60 37.6 61.92 38.08 63.84 38.24 L 63.84 42.08 C 63.84 44.64 61.76 46.88 59.04 46.88 C 56.32 46.88 54.24 44.8 54.24 42.08 L 54.24 39.36 Z"
        fill="#ffffff"
        stroke-width="1"/>
    <g
        id="group_16"
        transform="translate(-430.40000000000003 -561.6)">
        <g
            id="group_15"
            transform="translate(430.40000000000003 561.6)">
            <path
                id="path_50"
                d="M 128 64 C 128 80.967 121.253 97.257 109.255 109.255 C 97.257 121.253 80.967 128 64 128 C 47.033 128 30.743 121.253 18.745 109.255 C 6.747 97.257 0 80.967 0 64 C 0 47.033 6.747 30.743 18.745 18.745 C 30.743 6.747 47.033 0 64 0 C 80.967 0 97.257 6.747 109.255 18.745 C 121.253 30.743 128 47.033 128 64 Z"
                fill="#c6275f"/>
            <g
                id="group_14"
                transform="translate(36.800000000000004 43.2)">
                <path
                    id="path_51"
                    d="M 48.896 6.667 L 41.083 6.667 C 39.448 6.667 38.122 5.347 38.122 3.721 L 38.122 3.721 C 38.122 2.094 36.798 0.775 35.162 0.775 L 20.955 0.775 C 19.327 0.775 17.996 2.1 17.996 3.721 L 17.996 3.721 C 17.996 5.347 16.671 6.667 15.036 6.667 L 7.104 6.667 C 3.181 6.667 0 9.833 0 13.738 L 0 36.13 C 0 40.034 3.181 43.2 7.104 43.2 L 48.896 43.2 C 52.819 43.2 56 40.034 56 36.13 L 56 13.738 C 56 9.833 52.819 6.667 48.896 6.667 L 48.896 6.667 Z"
                    fill="none"
                    stroke="#ffffff"
                    stroke-width="2.2399999999999998"
                    stroke-linecap="round"
                    stroke-linejoin="round"/>
                <path
                    id="path_52"
                    d="M 37.757 24.344 C 37.757 29.394 33.644 33.486 28.572 33.486 C 23.499 33.486 19.386 29.394 19.386 24.344 C 19.386 19.294 23.499 15.201 28.572 15.201 C 33.644 15.201 37.757 19.294 37.757 24.344 L 37.757 24.344 Z"
                    fill="none"
                    stroke="#ffffff"
                    stroke-width="2.2399999999999998"
                    stroke-linecap="round"
                    stroke-linejoin="round"/>
                <path
                    id="path_53"
                    d="M 41.837 24.344 C 41.837 31.637 35.897 37.548 28.572 37.548 C 21.245 37.548 15.306 31.637 15.306 24.344 C 15.306 17.051 21.245 11.139 28.572 11.139 C 35.897 11.139 41.837 17.051 41.837 24.344 L 41.837 24.344 Z"
                    fill="none"
                    stroke="#ffffff"
                    stroke-width="2.2399999999999998"
                    stroke-linecap="round"
                    stroke-linejoin="round"/>
                <path
                    id="path_54"
                    d="M 13.166 4.31 L 7.247 4.31 L 7.247 3.721 C 7.247 2.095 8.572 0.775 10.207 0.775 L 10.207 0.775 C 11.841 0.775 13.166 2.095 13.166 3.721 L 13.166 4.31 Z"
                    fill="#ffffff"/>
            </g>
        </g>
    </g>
    <path
        id="path_55"
        d="M 64 0 C 47.032 0 30.742 6.747 18.746 18.746 C 6.747 30.742 0 47.032 0 64 C 0 80.968 6.747 97.258 18.746 109.254 C 30.742 121.253 47.032 128 64 128 C 80.968 128 97.258 121.253 109.254 109.254 C 121.253 97.258 128 80.968 128 64 C 128 47.032 121.253 30.742 109.254 18.746 C 97.258 6.747 80.968 0 64 0 Z"
        fill="#e5008c"
        stroke-width="1"/>
    <path
        id="path_1_10"
        d="M 84.8 40 C 82.56 39.68 80.32 39.84 78.08 40.48 C 74.88 36.32 69.92 33.76 64.64 33.76 C 59.36 33.76 54.4 36.32 51.2 40.48 C 48.96 39.84 46.72 39.68 44.48 40 C 36.16 41.12 29.76 48.16 29.76 56.64 C 29.76 64.48 34.88 71.36 42.56 73.12 C 44.32 73.6 45.76 75.04 45.92 76.96 L 46.88 87.52 L 47.52 93.6 C 47.84 96.16 51.04 97.92 52.48 98.56 C 52.64 98.72 52.8 98.72 52.96 98.72 C 56.8 100.32 60.8 101.12 64.96 101.12 C 68.96 101.12 73.12 100.32 76.8 98.72 C 77.6 98.4 81.92 96.48 82.24 93.44 L 82.88 87.36 L 83.84 76.8 C 84 74.88 85.28 73.44 87.2 72.96 C 94.88 71.04 100 64.32 100 56.48 C 99.52 48.32 93.12 41.12 84.8 40 Z M 75.52 96.64 C 68.48 99.52 60.48 99.52 53.6 96.64 C 52.16 96 49.76 94.56 49.76 93.44 L 49.6 91.84 C 54.4 94.08 59.36 95.36 64.64 95.36 C 69.92 95.36 74.88 94.24 79.68 91.84 L 79.52 93.44 C 79.36 94.56 77.12 96 75.52 96.64 Z M 86.24 70.88 C 83.52 71.52 81.44 73.92 81.12 76.8 L 80 89.12 C 75.2 91.68 70.08 93.12 64.64 93.12 C 59.36 93.12 54.24 91.84 49.28 89.12 L 48.16 76.8 C 47.84 73.92 45.76 71.52 43.04 70.88 C 36.48 69.28 32 63.36 32 56.64 C 32 49.44 37.44 43.36 44.64 42.4 C 45.28 42.24 45.92 42.24 46.4 42.24 C 48 42.24 49.6 42.56 51.04 43.04 L 51.84 43.36 L 52.32 42.56 C 55.04 38.56 59.52 36.16 64.32 36.16 C 69.12 36.16 73.6 38.56 76.32 42.56 L 76.8 43.36 L 77.6 43.04 C 79.68 42.24 81.92 42.08 84.16 42.4 C 91.36 43.36 96.8 49.44 96.8 56.64 C 97.12 63.36 92.64 69.28 86.24 70.88 Z M 86.24 70.88"
        fill="#ffffff"
        stroke-width="1"/>
    <path
        id="path_2_9"
        d="M 52.32 74.88 C 51.68 75.04 51.2 75.52 51.2 76.16 L 52.48 85.76 C 52.48 86.4 53.12 86.88 53.6 86.88 L 53.76 86.88 C 54.4 86.72 54.88 86.24 54.88 85.6 L 53.6 76 C 53.6 75.2 52.96 74.88 52.32 74.88 Z M 52.32 74.88 M 60.96 77.28 C 60.32 77.28 59.68 77.76 59.68 78.56 L 59.68 88.16 C 59.68 88.8 60.16 89.44 60.96 89.44 C 61.6 89.44 62.24 88.96 62.24 88.16 L 62.24 78.56 C 62.08 77.76 61.6 77.28 60.96 77.28 Z M 60.96 77.28 M 76.8 74.88 C 76.16 74.88 75.52 75.2 75.52 76 L 74.24 85.6 C 74.08 86.24 74.56 86.88 75.36 86.88 L 75.52 86.88 C 76.16 86.88 76.64 86.4 76.64 85.76 L 77.92 76.16 C 77.92 75.52 77.44 75.04 76.8 74.88 Z M 76.8 74.88 M 68.16 77.28 C 67.52 77.28 66.88 77.76 66.88 78.56 L 66.88 88.16 C 66.88 88.8 67.36 89.44 68.16 89.44 C 68.8 89.44 69.44 88.96 69.44 88.16 L 69.44 78.56 C 69.44 77.76 68.8 77.28 68.16 77.28 Z M 68.16 77.28 M 48.96 45.92 C 38.88 45.76 36.96 54.08 36.96 54.08 C 36.8 54.72 37.28 55.36 37.92 55.52 L 38.24 55.52 C 38.72 55.52 39.36 55.2 39.36 54.56 C 39.36 54.56 40.8 48.16 48.96 48.32 C 49.6 48.32 50.24 47.84 50.24 47.2 C 50.08 46.4 49.6 45.92 48.96 45.92 Z M 48.96 45.92 M 57.76 41.28 C 57.28 41.76 57.12 42.4 57.6 43.04 C 58.08 43.52 58.72 43.68 59.36 43.2 C 59.36 43.2 64.48 39.36 69.92 43.2 C 70.08 43.36 70.4 43.36 70.56 43.36 C 70.88 43.36 71.36 43.2 71.52 42.88 C 71.84 42.4 71.84 41.6 71.2 41.28 C 65.76 37.44 60 39.68 57.76 41.28 Z M 57.76 41.28"
        fill="#ffffff"
        stroke-width="1"/>
    <g
        id="group_19"
        transform="translate(-430.40000000000003 -356.8)">
        <g
            id="group_18"
            transform="translate(430.40000000000003 356.8)">
            <path
                id="path_56"
                d="M 128 64 C 128 80.967 121.253 97.257 109.255 109.255 C 97.257 121.253 80.967 128 64 128 C 47.033 128 30.743 121.253 18.745 109.255 C 6.747 97.257 0 80.967 0 64 C 0 47.033 6.747 30.743 18.745 18.745 C 30.743 6.747 47.033 0 64 0 C 80.967 0 97.257 6.747 109.255 18.745 C 121.253 30.743 128 47.033 128 64 Z"
                fill="#e73458"/>
            <g
                id="group_17"
                transform="translate(28.8 38.400000000000006)">
                <path
                    id="path_57"
                    d="M 8.063 17.41 L 11.653 10.618 C 12.824 8.402 15.127 7.014 17.635 7.014 L 27.116 7.014 L 27.116 34.13 L 0 34.13 L 0 25.978 C 0 23.719 1.175 21.621 3.103 20.442 L 8.063 17.41 L 8.063 17.41 Z"
                    fill="none"
                    stroke="#ffffff"
                    stroke-width="2.2399999999999998"
                    stroke-linecap="round"
                    stroke-linejoin="round"/>
                <path
                    id="path_58"
                    d="M 18.863 12.206 L 18.603 12.206 C 17.318 12.206 16.143 12.932 15.57 14.083 L 11.748 21.752"
                    fill="none"
                    stroke="#ffffff"
                    stroke-width="2.2399999999999998"
                    stroke-linecap="round"
                    stroke-linejoin="round"/>
                <path
                    id="path_59"
                    d="M 6.425 40.766 L -0.001 40.766 L -0.001 34.13 L 66.389 34.13 L 66.389 34.573 C 66.389 37.993 63.617 40.766 60.196 40.766 L 58.505 40.766"
                    fill="none"
                    stroke="#ffffff"
                    stroke-width="2.2399999999999998"
                    stroke-linecap="round"
                    stroke-linejoin="round"/>
                <path
                    id="path_60"
                    d="M 47.403 40 L 17.094 40"
                    fill="none"
                    stroke="#ffffff"
                    stroke-width="2.2399999999999998"
                    stroke-linecap="round"
                    stroke-linejoin="round"/>
                <path
                    id="path_61"
                    d="M 59.67 0.269 L 33.617 0.269 C 30.026 0.269 27.115 3.18 27.115 6.77 L 27.115 34.131 L 66.39 34.131 L 66.39 6.989 C 66.39 3.277 63.381 0.269 59.67 0.269 L 59.67 0.269 Z"
                    fill="none"
                    stroke="#ffffff"
                    stroke-width="2.2399999999999998"
                    stroke-linecap="round"
                    stroke-linejoin="round"/>
                <path
                    id="path_62"
                    d="M 16.848 39.589 C 16.848 42.466 14.515 44.8 11.637 44.8 C 8.758 44.8 6.425 42.466 6.425 39.589 C 6.425 36.711 8.758 34.378 11.637 34.378 C 14.515 34.378 16.848 36.711 16.848 39.589 L 16.848 39.589 Z"
                    fill="none"
                    stroke="#ffffff"
                    stroke-width="2.2399999999999998"
                    stroke-linecap="round"
                    stroke-linejoin="round"/>
                <path
                    id="path_63"
                    d="M 58.111 39.589 C 58.111 42.466 55.778 44.8 52.901 44.8 C 50.022 44.8 47.688 42.466 47.688 39.589 C 47.688 36.711 50.022 34.378 52.901 34.378 C 55.778 34.378 58.111 36.711 58.111 39.589 L 58.111 39.589 Z"
                    fill="none"
                    stroke="#ffffff"
                    stroke-width="2.2399999999999998"
                    stroke-linecap="round"
                    stroke-linejoin="round"/>
                <path
                    id="path_64"
                    d="M 59.576 27.026 L 59.576 27.026 C 60.771 27.026 61.75 26.047 61.75 24.852 L 61.75 18.534 C 61.75 17.338 60.771 16.36 59.576 16.36 L 59.576 16.36 C 58.381 16.36 57.402 17.338 57.402 18.534 L 57.402 21.962 L 36.525 21.962 L 36.525 18.534 C 36.525 17.338 35.547 16.36 34.351 16.36 L 34.351 16.36 C 33.156 16.36 32.177 17.338 32.177 18.534 L 32.177 24.852 C 32.177 26.047 33.156 27.026 34.351 27.026 L 34.351 27.026 L 59.576 27.026 L 59.576 27.026 Z"
                    fill="none"
                    stroke="#ffffff"
                    stroke-width="2.2399999999999998"
                    stroke-linecap="round"
                    stroke-linejoin="round"/>
                <path
                    id="path_65"
                    d="M 34.352 15.847 C 34.352 13.455 36.309 11.498 38.701 11.498 L 55.227 11.498 C 57.619 11.498 59.576 13.455 59.576 15.847"
                    fill="none"
                    stroke="#ffffff"
                    stroke-width="2.2399999999999998"
                    stroke-linecap="round"
                    stroke-linejoin="round"/>
                <path
                    id="path_66"
                    d="M 47.2 12.8 L 47.2 21.664"
                    fill="none"
                    stroke="#ffffff"
                    stroke-width="2.2399999999999998"
                    stroke-linecap="round"
                    stroke-linejoin="round"/>
                <path
                    id="path_67"
                    d="M 34.4 27.353 L 34.4 28.951"
                    fill="none"
                    stroke="#ffffff"
                    stroke-width="2.2399999999999998"
                    stroke-linecap="round"
                    stroke-linejoin="round"/>
                <path
                    id="path_68"
                    d="M 59.2 27.353 L 59.2 28.951"
                    fill="none"
                    stroke="#ffffff"
                    stroke-width="2.2399999999999998"
                    stroke-linecap="round"
                    stroke-linejoin="round"/>
            </g>
        </g>
    </g>
    <path
        id="path_69"
        d="M 64 0 C 47.033 0 30.743 6.747 18.745 18.745 C 6.747 30.743 0 47.033 0 64 C 0 80.967 6.747 97.257 18.745 109.255 C 30.743 121.253 47.033 128 64 128 C 80.967 128 97.257 121.253 109.255 109.255 C 121.253 97.257 128 80.967 128 64 C 128 47.033 121.253 30.743 109.255 18.745 C 97.257 6.747 80.967 0 64 0 Z"
        fill="#e73458"
        stroke-width="1"/>
    <g id="group_20">
        <path
            id="path_1_11"
            d="M 64.9 89.1 L 62 89.1 L 61.6 88.6 L 59.2 94.4 L 67.6 94.4 L 65.2 88.6 L 64.9 89.1 Z M 98.4 76.5 C 96.1 73.7 92.9 71.9 89.3 71.4 L 82.7 70.3 L 73 86.1 L 69.8 83.1 L 68.6 84.5 L 72.6 94.2 L 102 94.2 L 102 86.1 C 102 82.8 100.7 79.3 98.4 76.5 Z M 54.5 68.3 L 50 71.2 L 54.9 79.3 L 60.2 74.4 L 54.5 68.3 Z M 57.4 83.1 L 54.2 86.1 L 44.5 70.3 L 37.9 71.4 C 34.4 72 31.2 73.8 28.8 76.5 C 26.5 79.3 25.2 82.8 25.2 86.2 L 25.2 94.4 L 54.7 94.4 L 58.7 84.7 L 57.4 83.1 Z M 60.6 80.1 L 61.1 80.7 L 63.5 83.8 L 65.9 80.7 L 66.4 80.1 L 63.5 77.5 L 60.6 80.1 Z M 66.6 74.3 L 71.9 79.2 L 76.8 71.1 L 72.3 68.2 L 66.6 74.3 Z M 44.5 34.4 L 82.5 34.4 L 83.1 33.4 C 83.8 32.3 84.1 31 83.7 29.7 C 83.3 28.5 82.5 27.4 81.4 26.8 L 65.5 18.7 C 64.2 18 62.6 18 61.3 18.7 L 45.5 26.8 C 44.3 27.4 43.5 28.5 43.2 29.7 C 42.8 30.9 43.1 32.3 43.8 33.4 L 44.5 34.4 Z M 63.5 26.7 C 64.7 26.7 65.8 27.7 65.8 29 C 65.8 30.2 64.8 31.3 63.5 31.3 C 62.3 31.3 61.2 30.3 61.2 29 C 61.2 27.8 62.2 26.7 63.5 26.7 Z M 81.3 47.4 C 78.9 50.2 75.3 52 71.3 52 L 55.7 52 C 51.7 52 48.1 50.2 45.7 47.4 L 45.7 50.2 C 45.7 55.9 48.3 61 52.6 64.3 C 53.2 64.8 53.9 65.3 54.5 65.6 C 56.2 66.6 58 67.3 59.9 67.6 L 63.4 71.2 L 66.9 67.6 C 68.8 67.2 70.6 66.5 72.3 65.6 C 73 65.2 73.6 64.8 74.2 64.3 C 78.4 61.1 81.1 56 81.1 50.2 L 81.1 47.4 L 81.3 47.4 Z"
            fill="#ffffff"
            stroke-width="1"/>
        <path
            id="path_2_10"
            d="M 55.7 47.5 L 71.2 47.5 C 75.3 47.5 78.7 44.7 79.6 41 C 79.8 40.3 79.8 39.6 79.8 38.7 L 47 38.7 C 47 39.4 47.1 40.3 47.2 41 C 48.3 44.7 51.7 47.5 55.7 47.5 Z"
            fill="#ffffff"
            stroke-width="1"/>
    </g>
    <path
        id="path_70"
        d="M 64 0 C 47.033 0 30.743 6.748 18.745 18.745 C 6.748 30.743 0 47.033 0 64 C 0 80.967 6.748 97.257 18.745 109.255 C 30.743 121.252 47.033 128 64 128 C 80.967 128 97.257 121.252 109.255 109.255 C 121.252 97.257 128 80.967 128 64 C 128 47.033 121.252 30.743 109.255 18.745 C 97.257 6.748 80.967 0 64 0 Z"
        fill="#e73458"
        stroke-width="1"/>
    <g id="group_21">
        <path
            id="path_1_12"
            d="M 69.722 46.231 L 73.035 46.231 C 75.144 46.231 77.252 46.532 79.209 46.682 C 82.522 47.134 85.835 47.736 89.148 48.64 C 91.859 49.393 94.419 50.598 97.129 51.501 C 99.238 52.254 101.195 53.158 103.304 53.76 C 105.562 54.362 107.821 54.664 110.231 55.115 C 111.586 55.266 112.188 56.019 112.188 57.374 L 112.188 62.042 C 112.188 62.344 112.188 62.494 112.339 62.645 C 113.242 63.398 113.544 64.452 113.845 65.656 L 113.845 67.915 C 113.845 68.216 113.694 68.367 113.694 68.668 C 113.092 70.776 112.038 72.584 109.478 72.885 C 107.52 73.186 105.562 73.638 103.605 73.939 C 103.002 74.089 103.002 73.939 103.002 73.487 C 103.002 73.186 103.002 72.885 102.852 72.584 C 101.948 66.409 95.021 63.096 89.6 66.259 C 86.438 68.066 84.932 70.927 85.082 74.541 C 85.082 75.595 85.082 75.595 84.028 75.595 C 82.522 75.595 80.866 75.595 79.36 75.746 C 74.089 75.896 68.969 76.047 63.699 76.047 C 60.988 76.047 58.278 76.047 55.567 76.198 C 53.76 76.198 51.953 76.198 50.146 76.348 C 46.984 76.348 43.821 76.499 40.659 76.499 C 40.207 76.499 40.207 76.348 40.207 76.047 C 40.358 75.445 40.358 74.842 40.358 74.24 C 40.358 68.668 35.388 64.452 29.816 65.355 C 25.299 66.108 22.136 70.174 22.438 74.692 C 22.588 75.746 22.438 75.896 21.384 75.746 C 19.576 75.445 17.769 75.144 15.962 74.541 C 15.511 74.391 15.209 74.089 15.059 73.638 C 14.456 72.433 14.155 71.228 14.005 70.024 L 14.005 68.066 C 14.456 66.711 14.758 65.355 15.36 64 C 15.511 63.398 15.812 63.096 16.414 62.645 C 17.318 62.042 18.071 61.741 19.125 61.44 C 24.094 59.633 29.365 58.428 34.635 57.374 C 35.689 57.224 36.744 57.073 37.798 56.621 L 52.706 49.845 C 57.224 47.736 62.042 46.682 67.162 46.231 C 68.066 46.381 68.819 46.381 69.722 46.231 Z M 51.953 57.976 C 53.308 57.826 54.664 57.826 56.169 57.826 C 59.784 57.675 63.247 57.525 66.861 57.525 C 67.313 57.525 67.614 57.374 67.614 56.922 L 69.421 49.694 C 69.572 48.941 69.572 48.941 68.819 48.941 C 67.313 49.092 65.656 49.242 64.151 49.393 C 60.687 49.995 57.224 50.748 54.061 52.254 C 52.706 52.856 51.351 53.609 50.146 54.664 C 49.995 54.814 49.694 54.965 49.995 55.266 C 50.748 55.868 50.899 56.772 50.899 57.675 C 50.899 57.976 51.049 58.127 51.2 57.976 L 51.953 57.976 Z M 74.089 48.791 L 73.186 48.791 C 72.734 48.791 72.584 48.941 72.584 49.393 C 72.282 51.802 71.831 54.061 71.529 56.471 C 71.228 57.224 71.228 57.224 71.981 57.224 C 75.595 57.073 79.209 57.073 82.673 56.922 C 83.727 56.922 84.631 56.772 85.685 56.772 C 86.136 56.772 86.438 56.621 86.438 56.169 C 86.588 55.567 86.739 54.965 86.889 54.513 C 87.04 54.212 86.889 53.911 86.739 53.76 C 86.136 52.856 85.685 51.953 85.082 51.049 C 84.781 50.598 84.48 50.447 84.179 50.296 C 80.866 49.242 77.553 48.941 74.089 48.791 Z M 86.739 51.2 C 87.944 53.007 89.299 54.664 90.504 56.471 C 90.654 56.621 90.805 56.772 90.955 56.772 L 94.419 56.772 C 94.72 56.772 94.871 56.621 94.871 56.32 C 94.72 55.567 94.419 54.814 93.666 54.513 L 92.762 54.061 C 90.805 52.856 88.847 51.953 86.739 51.2 Z"
            fill="#ffffff"
            stroke-width="1"/>
        <path
            id="path_2_11"
            d="M 93.365 81.769 C 92.009 81.619 90.805 81.167 89.6 80.414 C 87.04 78.607 85.685 75.445 86.438 72.282 C 87.191 69.271 89.751 67.012 92.913 66.56 C 97.129 66.108 100.744 68.969 101.346 73.035 C 101.948 77.101 99.087 80.866 95.021 81.468 C 94.871 81.468 94.569 81.468 94.419 81.619 C 94.118 81.769 93.816 81.769 93.365 81.769 Z M 97.431 74.842 L 96.828 74.842 C 96.527 74.842 96.527 74.993 96.376 75.144 C 96.226 75.294 96.376 75.595 96.527 75.746 L 96.979 76.198 C 97.882 77.101 97.882 76.951 98.334 75.896 C 98.635 74.993 98.635 74.842 97.431 74.842 C 97.431 74.842 97.431 74.842 97.431 74.842 Z M 97.28 73.487 L 97.732 73.487 C 98.485 73.487 98.485 73.336 98.334 72.734 L 98.334 72.584 C 97.882 71.379 97.882 71.379 96.979 72.282 C 96.828 72.584 96.226 72.734 96.527 73.186 C 96.527 73.638 96.979 73.336 97.28 73.487 Z M 90.353 74.842 L 89.751 74.842 C 89.449 74.842 89.299 74.993 89.299 75.294 C 89.449 75.746 89.6 76.198 89.901 76.499 C 90.052 76.649 90.202 76.8 90.353 76.499 C 90.654 76.198 91.106 75.896 91.407 75.445 C 91.708 75.144 91.407 74.692 91.106 74.692 C 90.805 74.842 90.654 74.842 90.353 74.842 Z M 90.353 73.487 L 90.955 73.487 C 91.106 73.487 91.407 73.487 91.407 73.186 C 91.558 72.885 91.407 72.734 91.256 72.584 L 90.805 72.132 C 90.052 71.379 90.052 71.379 89.6 72.433 C 89.148 73.487 89.299 73.487 90.353 73.487 Z M 94.72 70.626 L 94.72 71.379 C 94.72 71.529 94.871 71.68 95.021 71.831 C 95.172 71.981 95.322 71.831 95.473 71.68 L 96.075 71.078 C 96.828 70.325 96.828 70.325 95.774 69.873 C 94.72 69.421 94.72 69.572 94.72 70.626 Z M 93.214 70.626 L 93.214 70.174 C 93.214 69.722 93.064 69.572 92.612 69.722 C 92.16 69.873 91.859 70.024 91.558 70.174 C 91.256 70.325 91.256 70.475 91.558 70.626 L 92.461 71.529 C 92.612 71.68 92.762 71.68 92.913 71.68 C 93.064 71.529 93.214 71.529 93.214 71.228 L 93.214 70.626 Z M 93.214 77.704 L 93.214 77.101 C 93.214 76.951 93.214 76.649 92.913 76.649 C 92.612 76.499 92.461 76.649 92.311 76.8 L 91.859 77.252 C 91.106 78.005 91.106 78.005 92.009 78.456 C 93.214 78.908 93.214 78.908 93.214 77.704 Z M 94.72 77.704 L 94.72 78.306 C 94.72 78.758 94.871 78.758 95.172 78.758 C 95.624 78.607 95.925 78.456 96.376 78.306 C 96.527 78.155 96.678 78.005 96.527 77.854 L 95.624 76.951 C 95.473 76.8 95.322 76.8 95.172 76.8 C 95.021 76.951 94.871 77.101 94.871 77.252 C 94.72 77.252 94.72 77.553 94.72 77.704 Z M 31.172 81.769 C 29.515 81.619 28.16 81.016 26.805 79.962 C 24.546 78.005 23.492 74.842 24.395 71.981 C 25.449 68.969 27.558 67.162 30.72 66.711 C 34.786 66.108 38.551 69.12 39.153 73.186 C 39.755 77.402 36.593 81.318 32.376 81.619 L 32.075 81.619 C 31.774 81.769 31.473 81.769 31.172 81.769 Z M 35.087 73.487 L 35.539 73.487 C 36.141 73.487 36.292 73.336 35.991 72.734 C 35.991 72.584 35.991 72.584 35.84 72.433 C 35.388 71.228 35.388 71.228 34.485 72.132 C 34.184 72.433 33.732 72.584 34.033 73.035 C 34.334 73.788 34.786 73.336 35.087 73.487 Z M 35.238 74.842 L 34.635 74.842 C 34.334 74.842 34.184 74.842 34.033 75.144 C 33.882 75.445 34.033 75.595 34.184 75.746 L 34.635 76.198 C 35.388 76.951 35.388 76.951 35.84 75.896 C 36.292 74.993 36.292 74.842 35.238 74.842 Z M 28.16 74.842 L 27.558 74.842 C 27.256 74.842 27.106 74.993 27.256 75.294 C 27.407 75.746 27.558 76.198 27.859 76.649 C 28.009 76.8 28.16 76.951 28.311 76.649 C 28.612 76.348 29.064 76.047 29.365 75.595 C 29.666 75.294 29.515 74.842 29.064 74.842 L 28.16 74.842 Z M 28.16 73.487 L 28.762 73.487 C 28.913 73.487 29.064 73.487 29.214 73.186 C 29.365 73.035 29.365 72.734 29.064 72.584 L 28.461 71.981 C 27.708 71.228 27.708 71.379 27.256 72.132 C 26.955 73.487 26.955 73.487 28.16 73.487 Z M 32.678 69.722 C 32.376 69.722 32.376 69.722 32.376 70.024 L 32.376 71.379 C 32.376 71.68 32.828 71.981 32.979 71.831 C 33.431 71.379 34.184 71.078 34.184 70.475 C 34.184 70.024 33.431 69.873 32.979 69.722 L 32.678 69.722 Z M 30.871 70.626 L 30.871 70.174 C 30.871 69.722 30.72 69.572 30.268 69.722 C 29.816 69.873 29.515 70.024 29.064 70.174 C 28.762 70.325 28.762 70.475 29.064 70.626 L 29.967 71.529 C 30.268 71.831 30.72 71.68 30.72 71.228 C 30.871 71.078 30.871 70.927 30.871 70.626 Z M 30.871 77.704 L 30.871 76.951 C 30.871 76.8 30.72 76.649 30.569 76.499 C 30.419 76.348 30.268 76.499 30.118 76.649 L 29.515 77.252 C 28.762 78.005 28.762 78.005 29.666 78.456 C 30.871 78.908 30.871 78.908 30.871 77.704 Z M 32.376 77.704 C 32.376 78.908 32.376 78.908 33.431 78.456 C 33.581 78.306 33.732 78.306 34.033 78.155 C 34.334 78.005 34.334 77.854 34.184 77.704 L 33.28 76.8 C 33.129 76.649 32.979 76.649 32.828 76.649 C 32.678 76.8 32.527 76.951 32.527 77.101 C 32.376 77.252 32.376 77.553 32.376 77.704 Z"
            fill="#ffffff"
            stroke-width="1"/>
    </g>
    <path
        id="path_71"
        d="M 64 0 C 47.032 0 30.742 6.747 18.746 18.746 C 6.747 30.742 0 47.032 0 64 C 0 80.968 6.747 97.258 18.746 109.254 C 30.742 121.253 47.032 128 64 128 C 80.968 128 97.258 121.253 109.254 109.254 C 121.253 97.258 128 80.968 128 64 C 128 47.032 121.253 30.742 109.254 18.746 C 97.258 6.747 80.968 0 64 0 Z"
        fill="#e73458"
        stroke-width="1"/>
    <g id="group_22">
        <path
            id="path_1_13"
            d="M 65.12 100.64 C 63.2 99.52 62.56 97.92 62.56 95.68 L 62.56 76.64 L 62.56 75.2 C 62.56 74.72 62.56 74.08 61.92 74.08 C 61.28 74.08 61.28 74.72 61.28 75.2 L 61.28 83.84 C 60.32 83.52 60.16 82.72 60 82.08 L 55.2 71.04 C 54.72 69.92 54.08 68.96 52.8 68.48 C 50.88 67.68 50.24 66.24 50.56 64 C 51.36 59.84 52.16 55.84 52.64 51.68 C 52.32 52.32 52.16 53.12 51.84 53.76 C 51.04 56 50.4 58.4 49.44 60.48 C 48 63.36 48.32 66.08 49.6 68.8 C 49.92 69.6 50.08 70.08 51.2 69.92 C 52.32 69.76 52.96 70.56 53.28 71.52 L 60.48 88.32 C 61.28 90.08 60.8 91.2 58.88 91.84 C 56.64 92.64 54.24 93.44 52 94.08 C 50.24 94.56 49.12 94.08 48.64 92.16 C 47.2 86.24 45.92 80.32 44.48 74.24 C 44.32 73.28 44.32 72.32 45.28 71.68 C 46.08 71.2 46.08 70.56 45.76 69.76 C 45.12 67.84 44.8 65.92 42.72 64.8 C 41.44 64.16 41.44 62.56 41.76 61.28 C 44.16 54.4 46.56 47.52 49.12 40.64 C 50.4 37.12 52.96 35.04 57.12 35.36 C 60 35.52 62.88 35.52 65.92 35.36 C 70.72 35.04 73.28 37.6 74.72 41.6 C 76.32 46.08 77.76 50.4 79.36 54.88 C 80 56.8 80.8 58.88 81.44 60.8 C 82.08 62.56 81.92 64 80.48 65.28 C 79.04 66.56 79.52 69.92 81.12 71.04 C 82.24 71.68 82.4 72.8 82.4 73.76 C 82.88 78.24 83.2 82.88 83.52 87.36 C 83.68 88.64 83.84 89.92 83.84 91.2 C 83.84 93.12 83.04 93.92 81.28 94.08 L 73.92 94.08 C 72 94.08 71.2 93.12 71.36 91.2 C 71.84 85.28 72.48 79.2 72.96 73.28 C 73.12 72 73.6 71.04 74.88 70.72 C 75.36 70.56 75.68 70.4 75.68 69.92 C 75.52 67.84 76 65.76 75.2 63.84 C 73.6 59.84 72.32 55.68 70.56 51.68 C 71.36 56.48 72.32 61.28 73.12 66.08 C 73.44 67.68 73.6 68.96 72 70.24 C 70.72 71.36 70.24 73.44 70.08 75.04 C 70.08 80.16 69.76 85.28 69.28 90.56 C 69.12 91.84 69.28 93.12 69.76 94.4 C 70.72 96.8 69.76 98.88 67.36 100.48 C 67.04 100.64 66.08 100.64 65.12 100.64 Z M 64 20.48 C 65.76 21.44 67.52 22.72 68.32 24.8 C 69.44 28.16 68 31.84 64.64 33.28 C 61.6 34.72 57.92 33.44 56.16 30.56 C 54.4 27.52 55.2 23.68 58.08 21.6 C 58.56 21.28 59.2 20.96 59.68 20.48 L 64 20.48 Z"
            fill="#ffffff"
            stroke-width="1"/>
        <path
            id="path_2_12"
            d="M 55.84 100.64 C 55.36 100.16 54.72 99.84 54.24 99.36 C 52.64 97.44 53.12 96 55.36 95.36 C 56.96 94.88 58.56 94.4 60 93.76 C 60.64 93.6 61.12 93.6 61.28 94.4 C 61.44 96.96 61.28 99.36 58.72 100.64 L 55.84 100.64 Z M 45.28 86.4 C 44.8 88.64 44.32 90.88 43.52 93.28 C 43.2 94.4 42.08 94.88 40.96 94.4 C 38.4 93.6 35.84 92.8 33.28 91.84 C 31.68 91.36 31.36 90.08 32 88.64 C 34.4 82.88 36.96 77.12 39.36 71.52 C 39.84 70.56 40.48 70.08 41.6 70.08 C 41.92 70.08 42.24 70.24 42.56 69.92 C 42.88 69.76 42.88 68.8 43.52 69.28 C 44 69.76 44 70.4 43.52 70.88 C 42.24 72.32 42.4 73.92 42.88 75.68 C 43.52 78.56 44.32 81.6 44.96 84.48 C 45.12 85.12 45.28 85.6 45.28 86.4 Z M 81.92 67.68 C 82.56 67.68 82.88 68.48 83.52 68.16 C 85.12 67.36 86.08 68.32 87.04 69.44 L 98.56 82.4 C 100.16 84.16 100 85.28 98.08 86.72 C 96.32 88 94.72 89.28 92.96 90.56 C 90.88 92.16 90.08 91.68 88.48 89.6 C 85.6 85.92 84.96 81.76 84.8 77.28 C 84.8 75.84 84.48 74.4 84.48 72.96 C 84.32 71.68 83.84 70.56 82.72 69.76 C 81.92 69.28 81.6 68.64 81.92 67.68 Z"
            fill="#ffffff"
            stroke-width="1"/>
    </g>
    <path
        id="path_72"
        d="M 64 0 C 47.033 0 30.743 6.747 18.745 18.745 C 6.747 30.743 0 47.033 0 64 C 0 80.967 6.747 97.257 18.745 109.255 C 30.743 121.253 47.033 128 64 128 C 80.967 128 97.257 121.253 109.255 109.255 C 121.253 97.257 128 80.967 128 64 C 128 47.033 121.253 30.743 109.255 18.745 C 97.257 6.747 80.967 0 64 0 Z"
        fill="#2aaadc"
        stroke-width="1"/>
    <g id="group_23">
        <path
            id="path_1_14"
            d="M 64.9 89.1 L 62 89.1 L 61.6 88.6 L 59.2 94.4 L 67.6 94.4 L 65.2 88.6 L 64.9 89.1 Z M 98.4 76.5 C 96.1 73.7 92.9 71.9 89.3 71.4 L 82.7 70.3 L 73 86.1 L 69.8 83.1 L 68.6 84.5 L 72.6 94.2 L 102 94.2 L 102 86.1 C 102 82.8 100.7 79.3 98.4 76.5 Z M 54.5 68.3 L 50 71.2 L 54.9 79.3 L 60.2 74.4 L 54.5 68.3 Z M 57.4 83.1 L 54.2 86.1 L 44.5 70.3 L 37.9 71.4 C 34.4 72 31.2 73.8 28.8 76.5 C 26.5 79.3 25.2 82.8 25.2 86.2 L 25.2 94.4 L 54.7 94.4 L 58.7 84.7 L 57.4 83.1 Z M 60.6 80.1 L 61.1 80.7 L 63.5 83.8 L 65.9 80.7 L 66.4 80.1 L 63.5 77.5 L 60.6 80.1 Z M 66.6 74.3 L 71.9 79.2 L 76.8 71.1 L 72.3 68.2 L 66.6 74.3 Z M 44.5 34.4 L 82.5 34.4 L 83.1 33.4 C 83.8 32.3 84.1 31 83.7 29.7 C 83.3 28.5 82.5 27.4 81.4 26.8 L 65.5 18.7 C 64.2 18 62.6 18 61.3 18.7 L 45.5 26.8 C 44.3 27.4 43.5 28.5 43.2 29.7 C 42.8 30.9 43.1 32.3 43.8 33.4 L 44.5 34.4 Z M 63.5 26.7 C 64.7 26.7 65.8 27.7 65.8 29 C 65.8 30.2 64.8 31.3 63.5 31.3 C 62.3 31.3 61.2 30.3 61.2 29 C 61.2 27.8 62.2 26.7 63.5 26.7 Z M 81.3 47.4 C 78.9 50.2 75.3 52 71.3 52 L 55.7 52 C 51.7 52 48.1 50.2 45.7 47.4 L 45.7 50.2 C 45.7 55.9 48.3 61 52.6 64.3 C 53.2 64.8 53.9 65.3 54.5 65.6 C 56.2 66.6 58 67.3 59.9 67.6 L 63.4 71.2 L 66.9 67.6 C 68.8 67.2 70.6 66.5 72.3 65.6 C 73 65.2 73.6 64.8 74.2 64.3 C 78.4 61.1 81.1 56 81.1 50.2 L 81.1 47.4 L 81.3 47.4 Z"
            fill="#000000"
            stroke-width="1"/>
        <path
            id="path_2_13"
            d="M 55.7 47.5 L 71.2 47.5 C 75.3 47.5 78.7 44.7 79.6 41 C 79.8 40.3 79.8 39.6 79.8 38.7 L 47 38.7 C 47 39.4 47.1 40.3 47.2 41 C 48.3 44.7 51.7 47.5 55.7 47.5 Z"
            fill="#000000"
            stroke-width="1"/>
    </g>
    <path
        id="path_3_7"
        d="M 64 0 C 47.033 0 30.743 6.747 18.745 18.745 C 6.747 30.743 0 47.033 0 64 C 0 80.967 6.747 97.257 18.745 109.255 C 30.743 121.253 47.033 128 64 128 C 80.967 128 97.257 121.253 109.255 109.255 C 121.253 97.257 128 80.967 128 64 C 128 47.033 121.253 30.743 109.255 18.745 C 97.257 6.747 80.967 0 64 0 Z"
        fill="#e73458"
        stroke-width="1"/>
    <path
        id="path_4_2"
        d="M 57.1 46.2 L 57.1 38 C 57.1 37.2 56.5 36.6 55.7 36.6 L 39.2 36.6 C 38.4 36.6 37.8 37.2 37.8 38 L 37.8 46.2 C 37.8 51.5 42.1 55.8 47.4 55.8 C 52.8 55.8 57.1 51.5 57.1 46.2 Z M 42 57.3 L 42 59.7 C 42.3 60.3 43.6 62.7 47.6 62.7 C 51.6 62.7 52.8 60.3 53.2 59.7 L 53.2 57.3 C 51.6 58.2 49.7 58.6 47.6 58.6 C 45.5 58.6 43.6 58.1 42 57.3 Z"
        fill="#ffffff"
        stroke-width="1"/>
    <path
        id="path_5_2"
        d="M 30.4 61.4 L 39.1 59 L 39.1 55.5 C 36.6 53.2 34.9 49.9 34.9 46.3 L 34.9 38 C 34.9 35.7 36.8 33.8 39.1 33.8 L 55.7 33.8 C 58 33.8 59.9 35.7 59.9 38 L 59.9 46.2 C 59.9 49.9 58.3 53.2 55.7 55.4 L 55.7 59 L 64.4 61.4 C 66.2 61.3 67.7 60.1 68.3 58.5 L 68.8 57.1 C 65.1 56.2 62.5 52.9 62.5 49 L 62.5 35.2 C 62.5 26.8 55.7 20 47.3 20 C 38.9 20 32.1 26.8 32.1 35.2 L 32.1 49 C 32.1 52.9 29.4 56.2 25.8 57.1 L 26.3 58.5 C 27.2 60 28.7 61.1 30.4 61.4 Z M 47.4 65.6 C 42.8 65.6 40.7 63.2 39.8 61.7 L 30.8 64.1 L 30.8 64.2 L 30.5 64.2 L 30.2 64.3 C 27.8 64.9 25.9 66.8 25.3 69.2 L 22.8 79.3 L 58.2 79.3 L 58.2 66.9 C 58.2 65.3 59.2 63.9 60.5 63.2 L 54.8 61.7 C 54.2 63.1 52 65.6 47.4 65.6 Z M 83.4 60 L 91.6 60 L 91.6 62.8 L 83.4 62.8 L 83.4 60 Z M 94.4 65.6 L 62.6 65.6 C 61.8 65.6 61.2 66.2 61.2 67 L 61.2 73.8 L 69.4 73.8 L 69.4 68.2 L 87.4 68.2 L 87.4 83.4 L 95.6 83.4 L 95.6 66.8 C 95.8 66.1 95.1 65.6 94.4 65.6 Z"
        fill="#ffffff"
        stroke-width="1"/>
    <path
        id="path_6_2"
        d="M 61.2 76.6 L 69.4 76.6 L 69.4 79.4 L 61.2 79.4 L 61.2 76.6 Z M 87.4 91.7 L 62.6 91.7 C 61.8 91.7 61.2 92.3 61.2 93.1 L 61.2 94.5 L 64 94.5 L 64 97.3 L 61.2 97.3 L 61.2 100.1 L 95.6 100.1 L 95.6 97.3 L 66.8 97.3 L 66.8 94.5 L 95.8 94.5 L 95.8 86.3 L 87.6 86.3 L 87.6 91.7 L 87.4 91.7 Z M 90.2 89 L 93 89 L 93 91.8 L 90.2 91.8 L 90.2 89 Z M 101.2 65.6 L 101.2 68.4 L 98.4 68.4 L 98.4 76.6 L 101.2 76.6 L 101.2 79.4 L 104 79.4 L 104 65.6 L 101.2 65.6 Z"
        fill="#ffffff"
        stroke-width="1"/>
    <path
        id="path_73"
        d="M 64 0 C 47.033 0 30.743 6.747 18.745 18.745 C 6.747 30.743 0 47.033 0 64 C 0 80.967 6.747 97.257 18.745 109.255 C 30.743 121.253 47.033 128 64 128 C 80.967 128 97.257 121.253 109.255 109.255 C 121.253 97.257 128 80.967 128 64 C 128 47.033 121.253 30.743 109.255 18.745 C 97.257 6.747 80.967 0 64 0 Z"
        fill="#e73458"
        stroke-width="1"/>
    <g id="group_24">
        <path
            id="path_1_15"
            d="M 93.7 97.3 C 93.7 94.2 90.1 90.2 85.5 89 C 87.5 87.7 88.8 85.1 88.8 82.7 C 88.8 79.4 86.1 76.6 82.7 76.6 C 79.4 76.6 76.6 79.3 76.6 82.7 C 76.6 85.1 78 87.7 79.9 89 C 75.2 90.2 71.7 94.3 71.7 97.3 C 71.8 100.9 93.7 100.9 93.7 97.3 Z M 42.7 37.7 C 45.4 37.7 47.6 34.6 47.6 31.9 C 47.6 29.2 45.4 27 42.7 27 C 40 27 37.8 29.1 37.8 31.9 C 37.7 34.6 40 37.7 42.7 37.7 Z"
            fill="#ffffff"
            stroke-width="1"/>
        <path
            id="path_2_14"
            d="M 94 52 L 94 31.4 C 94 29.5 92.5 28 90.6 28 L 77.1 28 L 77.1 25.4 C 77.1 24.7 76.5 24.1 75.8 24.1 C 75.1 24.1 74.5 24.7 74.5 25.4 L 74.5 28 L 61.2 28 C 59.3 28 57.8 29.5 57.8 31.4 L 57.8 42 L 51.2 39.7 C 50.7 39.6 47 38.3 43.6 38 L 43.1 39 L 44.4 49.2 L 42.9 51.9 L 41.4 49.2 L 42.6 39 L 42 38.1 C 38.4 38.3 34.5 39.6 34.3 39.8 C 34.2 39.8 34.2 39.9 34.1 39.9 C 34 39.9 33.9 40 33.7 40.1 C 33.6 40.2 33.5 40.2 33.5 40.3 C 33.4 40.4 33.4 40.5 33.3 40.5 C 33.2 40.6 33.2 40.7 33.2 40.9 C 33.2 41.1 33 41.1 33 41.2 L 29.9 55.1 C 29.7 56.2 30.4 57.2 31.3 57.4 L 31.8 57.4 C 32.6 57.4 33.5 56.8 33.7 55.9 L 36.5 43 C 36.7 42.9 37 42.9 37.2 42.8 L 37.2 56.1 L 35.7 75.2 C 35.7 75.9 35.9 76.6 36.4 77.1 C 34.3 78 32.8 80.2 32.8 82.6 C 32.8 85 34.1 87.6 36.1 88.9 C 31.4 90 28 94.2 28 97.1 C 28 100.7 49.8 100.7 49.8 97.1 C 49.8 94 46.2 90 41.6 88.8 C 43.6 87.5 44.9 84.9 44.9 82.5 C 44.9 79.5 42.8 77 39.9 76.6 C 40.1 76.2 40.3 75.9 40.3 75.5 L 41.7 58.2 C 41.9 58.4 42.3 58.4 42.6 58.4 C 42.9 58.4 43.2 58.3 43.5 58.2 L 44.9 75.5 C 45 76.7 46 77.6 47.3 77.6 L 47.5 77.6 C 48.8 77.5 49.8 76.4 49.6 75.1 L 47.8 56 L 47.8 42.9 C 48.7 43.1 49.5 43.4 49.5 43.4 L 57.5 46 L 57.5 52 C 57.5 53.9 59 55.4 60.9 55.4 L 67.2 55.4 L 61.9 76 L 61.9 76.6 C 61.5 76.5 61.2 76.5 60.7 76.5 C 57.4 76.5 54.6 79.2 54.6 82.6 C 54.6 85 56 87.6 57.9 88.9 C 53.2 90.1 49.7 94.2 49.7 97.2 C 49.7 100.8 71.5 100.8 71.5 97.2 C 71.5 94.1 67.9 90.1 63.3 88.9 C 65.3 87.6 66.6 85 66.6 82.6 C 66.6 80.5 65.4 78.6 63.8 77.5 C 64 77.4 64.2 77.1 64.3 76.8 L 70 55.5 L 74.4 55.5 L 74.4 70.6 C 74.4 71.3 75 71.9 75.7 71.9 C 76.4 71.9 77 71.3 77 70.6 L 77 55.5 L 81.4 55.5 L 87.1 76.8 C 87.2 77.4 87.8 77.7 88.4 77.7 L 88.8 77.7 C 89.5 77.5 89.9 76.8 89.7 76.2 L 84.2 55.7 L 90.5 55.7 C 92.5 55.5 94 53.9 94 52 Z M 61.2 53.8 C 60.3 53.8 59.4 53 59.4 52 L 59.4 46.5 L 59.6 46.5 C 60.4 46.5 61.1 46 61.4 45.2 C 61.8 44.1 61.2 43.1 60.2 42.7 L 59.4 42.5 L 59.4 31.4 C 59.4 30.5 60.2 29.6 61.2 29.6 L 90.5 29.6 C 91.4 29.6 92.3 30.4 92.3 31.4 L 92.3 52.2 C 92.3 53.1 91.6 54 90.5 54 C 90.6 53.8 61.2 53.8 61.2 53.8 Z"
            fill="#ffffff"
            stroke-width="1"/>
    </g>
</svg>
