<svg
    xmlns="http://www.w3.org/2000/svg"
    viewBox="0 0 38 38"
    id="vector">
    <path
        id="path"
        d="M 14 15.538 L 14 18.957 L 16.222 18.957 L 16.222 29 L 20.494 29 L 20.494 18.914 L 23.474 18.914 L 23.791 15.538 L 20.494 15.538 L 20.494 13.615 C 20.494 12.819 20.664 12.504 21.48 12.504 L 23.791 12.504 L 23.791 9 L 20.834 9 C 17.655 9 16.222 10.319 16.222 12.846 L 16.222 15.538 L 14 15.538 Z"
        fill="#3b5998"/>
</svg>
