<svg
    xmlns="http://www.w3.org/2000/svg"
    viewBox="0 0 38 38"
    id="vector">
    <g
        id="group_1"
        transform="translate(-232 -26)">
        <g
            id="group"
            transform="translate(232 26)">
            <path
                id="path"
                d="M 26.767 14.448 C 26.187 14.694 25.564 14.86 24.909 14.935 C 25.577 14.553 26.09 13.947 26.332 13.226 C 25.707 13.58 25.014 13.837 24.278 13.975 C 23.688 13.375 22.847 13 21.916 13 C 19.828 13 18.293 14.861 18.765 16.793 C 16.077 16.664 13.693 15.434 12.098 13.565 C 11.25 14.954 11.658 16.77 13.099 17.69 C 12.569 17.674 12.07 17.535 11.634 17.303 C 11.599 18.734 12.672 20.072 14.228 20.371 C 13.773 20.489 13.274 20.516 12.767 20.424 C 13.179 21.651 14.374 22.544 15.789 22.569 C 14.429 23.587 12.716 24.041 11 23.848 C 12.432 24.725 14.132 25.236 15.959 25.236 C 21.965 25.236 25.358 20.392 25.153 16.047 C 25.785 15.612 26.334 15.068 26.767 14.448"
                fill="#008fb4"/>
        </g>
    </g>
</svg>
