{
  "project_info": {
    "project_number": "607777057858",
    "project_id": "herotasker-16edc",
    "storage_bucket": "herotasker-16edc.appspot.com"
  },
  "client": [
    {
      "client_info": {
        "mobilesdk_app_id": "1:607777057858:android:57427987f8d0c8c08a51db",
        "android_client_info": {
          "package_name": "com.herotasker"
        }
      },
      "oauth_client": [
        {
          "client_id": "607777057858-5c0n9rvs9qi6bi86lku982cjenfrm9pc.apps.googleusercontent.com",
          "client_type": 3
        }
      ],
      "api_key": [
        {
          "current_key": "AIzaSyDNdC5Ta2Lgk7PLUNbA0-nM9hSL53pkpOs"
        }
      ],
      "services": {
        "appinvite_service": {
          "other_platform_oauth_client": [
            {
              "client_id": "607777057858-5c0n9rvs9qi6bi86lku982cjenfrm9pc.apps.googleusercontent.com",
              "client_type": 3
            },
            {
              "client_id": "607777057858-vt8kp7u7chjl2boqq8mnh70rsf76j2sk.apps.googleusercontent.com",
              "client_type": 2,
              "ios_info": {
                "bundle_id": "com.herotasker"
              }
            }
          ]
        }
      }
    }
  ],
  "configuration_version": "1"
}